Jill,Doe,1
Joe,Doe,2
Justin,Doe,3
Jill,Doe,4
Joe,Doe,5
Justin,Doe,6
Jill,Doe,7
Joe,Doe,8
Justin,Doe,9
Jill,Doe,10
Joe,Doe,11
Justin,Doe,12
Joe,Doe,13
Justin,Doe,14
Jill,Doe,15
Joe,Doe,16
Justin,Doe,17
