Jill,Doe,1
Joe,Doe,2
Justin,Doe,3
Jill,Doe,1
Joe,Doe,2
Justin,Doe,3
Jill,Doe,1
Joe,Doe,2
Justin,Doe,3
Jill,Doe,1
Joe,Doe,2
Justin,Doe,3
Jill,Doe,1
Joe,Doe,2
Jill,Doe,1
Justin,Doe,3
Joe,Doe,2
Justin,Doe,3
Jill,Doe,1
Joe,Doe,2
Justin,Doe,3
Jill,Doe,1
Joe,Doe,2
Justin,Doe,3
Jill,Doe,1
Joe,Doe,2
Justin,Doe,3
Jill,Doe,1
Joe,Doe,2
Justin,Doe,3
Jill,Doe,1
Joe,Doe,2
Justin,Doe,3
Jill,Doe,1
Joe,Doe,2
Justin,Doe,3
Jill,Doe,1
Joe,Doe,2
Justin,Doe,3
Jill,Doe,1
Joe,Doe,2
Justin,Doe,3
Jill,Doe,1
Joe,Doe,2
Justin,Doe,3
Jill,Doe,1
Joe,Doe,2
Justin,Doe,3
Joe,Doe,2
Justin,Doe,3
Jill,Doe,1
Joe,Doe,2
Justin,Doe,3
Jill,Doe,1
Joe,Doe,2
Justin,Doe,3
Jill,Doe,1
Joe,Doe,2
Justin,Doe,3
Jill,Doe,1
Joe,Doe,2
Justin,Doe,3
Jill,Doe,1
Joe,Doe,2
Justin,Doe,3
Jill,Doe,1
Joe,Doe,2
Justin,Doe,3
Jill,Doe,1
Joe,Doe,2
Justin,Doe,3
Jill,Doe,1
Joe,Doe,2
Justin,Doe,3
Jill,Doe,1
Joe,Doe,2
Justin,Doe,3
Jill,Doe,1
Joe,Doe,2
Justin,Doe,3
Jill,Doe,1
Joe,Doe,2
Justin,Doe,3
Jill,Doe,1
Joe,Doe,2
Justin,Doe,3
Jill,Doe,1
Joe,Doe,2
Justin,Doe,3
Jill,Doe,1
Joe,Doe,2
Justin,Doe,3
Jill,Doe,1
Joe,Doe,2
Justin,Doe,3
Jill,Doe,1
Joe,Doe,2
Justin,Doe,3
Jill,Doe,1
Joe,Doe,2
Justin,Doe,3
Jill,Doe,1
Joe,Doe,2
Justin,Doe,3
Joe,Doe,2
Justin,Doe,3
Jill,Doe,1
Joe,Doe,2
Justin,Doe,3
Jill,Doe,1
Joe,Doe,2
Justin,Doe,3
Jill,Doe,1
Joe,Doe,2
Justin,Doe,3
Jill,Doe,1
Joe,Doe,2
Justin,Doe,3
Jill,Doe,1
Joe,Doe,2
Justin,Doe,3
Jill,Doe,1
Joe,Doe,2
Justin,Doe,3
Jill,Doe,1
Joe,Doe,2
Justin,Doe,3
Jill,Doe,1
Joe,Doe,2
Justin,Doe,3
Jill,Doe,1
Joe,Doe,2
Justin,Doe,3
Jill,Doe,1
Joe,Doe,2
Justin,Doe,3
Jill,Doe,1
Joe,Doe,2
Justin,Doe,3
Jill,Doe,1
Joe,Doe,2
Justin,Doe,3
Jill,Doe,1
Joe,Doe,2
Justin,Doe,3
Jill,Doe,1
Joe,Doe,2
Justin,Doe,3
Jill,Doe,1
Joe,Doe,2
Justin,Doe,3
Jill,Doe,1
Joe,Doe,2
Justin,Doe,3
Jill,Doe,1
Joe,Doe,2
Justin,Doe,3
Jill,Doe,1
Joe,Doe,2
Justin,Doe,3
Joe,Doe,2
Justin,Doe,3
Jill,Doe,1
Joe,Doe,2
Justin,Doe,3
Jill,Doe,1
Joe,Doe,2
Justin,Doe,3
Jill,Doe,1
Joe,Doe,2
Justin,Doe,3
Jill,Doe,1
Joe,Doe,2
Justin,Doe,3
Jill,Doe,1
Joe,Doe,2
Justin,Doe,3
Jill,Doe,1
Joe,Doe,2
Justin,Doe,3
Jill,Doe,1
Joe,Doe,2
Justin,Doe,3
Jill,Doe,1
Joe,Doe,2
Justin,Doe,3
Jill,Doe,1
Joe,Doe,2
Justin,Doe,3
Jill,Doe,1
Joe,Doe,2
Justin,Doe,3
Jill,Doe,1
Joe,Doe,2
Justin,Doe,3
Jill,Doe,1
Joe,Doe,2
Justin,Doe,3
Jill,Doe,1
Joe,Doe,2
Justin,Doe,3
Jill,Doe,1
Joe,Doe,2
Justin,Doe,3
Jill,Doe,1
Joe,Doe,2
Justin,Doe,3
Jill,Doe,1
Joe,Doe,2
Justin,Doe,3
Jill,Doe,1
Joe,Doe,2
Justin,Doe,3
Jill,Doe,1
Joe,Doe,2
Justin,Doe,3
Joe,Doe,2
Justin,Doe,3
Jill,Doe,1
Joe,Doe,2
Justin,Doe,3
Jill,Doe,1
Joe,Doe,2
Justin,Doe,3
Jill,Doe,1
Joe,Doe,2
Justin,Doe,3
Jill,Doe,1
Joe,Doe,2
Justin,Doe,3
Jill,Doe,1
Joe,Doe,2
Justin,Doe,3
Jill,Doe,1
Joe,Doe,2
Justin,Doe,3
Jill,Doe,1
Joe,Doe,2
Justin,Doe,3
Jill,Doe,1
Joe,Doe,2
Justin,Doe,3
Jill,Doe,1
Joe,Doe,2
Justin,Doe,3
Jill,Doe,1
Joe,Doe,2
Justin,Doe,3
Jill,Doe,1
Joe,Doe,2
Justin,Doe,3
Jill,Doe,1
Joe,Doe,2
Justin,Doe,3
Jill,Doe,1
Joe,Doe,2
Justin,Doe,3
Jill,Doe,1
Joe,Doe,2
Justin,Doe,3
Jill,Doe,1
Joe,Doe,2
Justin,Doe,3
Jill,Doe,1
Joe,Doe,2
Justin,Doe,3
Jill,Doe,1
Joe,Doe,2
Justin,Doe,3
Jill,Doe,1
Joe,Doe,2
Justin,Doe,3
Joe,Doe,2
Justin,Doe,3
Jill,Doe,1
Joe,Doe,2
Justin,Doe,3
Jill,Doe,1
Joe,Doe,2
Justin,Doe,3
Jill,Doe,1
Joe,Doe,2
Justin,Doe,3
Jill,Doe,1
Joe,Doe,2
Justin,Doe,3
Jill,Doe,1
Joe,Doe,2
Justin,Doe,3
Jill,Doe,1
Joe,Doe,2
Justin,Doe,3
Jill,Doe,1
Joe,Doe,2
Justin,Doe,3
Jill,Doe,1
Joe,Doe,2
Justin,Doe,3
Jill,Doe,1
Joe,Doe,2
Justin,Doe,3
Jill,Doe,1
Joe,Doe,2
Justin,Doe,3
Jill,Doe,1
Joe,Doe,2
Justin,Doe,3
Jill,Doe,1
Joe,Doe,2
Justin,Doe,3
Jill,Doe,1
Joe,Doe,2
Justin,Doe,3
Jill,Doe,1
Joe,Doe,2
Justin,Doe,3
Jill,Doe,1
Joe,Doe,2
Justin,Doe,3
Jill,Doe,1
Joe,Doe,2
Justin,Doe,3
Jill,Doe,1
Joe,Doe,2
Justin,Doe,3
Jill,Doe,1
Joe,Doe,2
Justin,Doe,3
Joe,Doe,2
Justin,Doe,3
Jill,Doe,1
Joe,Doe,2
Justin,Doe,3
Jill,Doe,1
Joe,Doe,2
Justin,Doe,3
Jill,Doe,1
Joe,Doe,2
Justin,Doe,3
Jill,Doe,1
Joe,Doe,2
Justin,Doe,3
Jill,Doe,1
Joe,Doe,2
Justin,Doe,3
Jill,Doe,1
Joe,Doe,2
Justin,Doe,3
Jill,Doe,1
Joe,Doe,2
Justin,Doe,3
Jill,Doe,1
Joe,Doe,2
Justin,Doe,3
Jill,Doe,1
Joe,Doe,2
Justin,Doe,3
Jill,Doe,1
Joe,Doe,2
Justin,Doe,3
Jill,Doe,1
Joe,Doe,2
Justin,Doe,3
Jill,Doe,1
Joe,Doe,2
Justin,Doe,3
Jill,Doe,1
Joe,Doe,2
Justin,Doe,3
Jill,Doe,1
Joe,Doe,2
Justin,Doe,3
Jill,Doe,1
Joe,Doe,2
Justin,Doe,3
Jill,Doe,1
Joe,Doe,2
Justin,Doe,3
Jill,Doe,1
Joe,Doe,2
Justin,Doe,3
Jill,Doe,1
Joe,Doe,2
Justin,Doe,3
Joe,Doe,2
Justin,Doe,3
Jill,Doe,1
Joe,Doe,2
Justin,Doe,3
Jill,Doe,1
Joe,Doe,2
Justin,Doe,3
Jill,Doe,1
Joe,Doe,2
Justin,Doe,3
Jill,Doe,1
Joe,Doe,2
Justin,Doe,3
Jill,Doe,1
Joe,Doe,2
Justin,Doe,3
Jill,Doe,1
Joe,Doe,2
Justin,Doe,3
Jill,Doe,1
Joe,Doe,2
Justin,Doe,3
Jill,Doe,1
Joe,Doe,2
Justin,Doe,3
Jill,Doe,1
Joe,Doe,2
Justin,Doe,3
Jill,Doe,1
Joe,Doe,2
Justin,Doe,3
Jill,Doe,1
Joe,Doe,2
Justin,Doe,3
Jill,Doe,1
Joe,Doe,2
Justin,Doe,3
Jill,Doe,1
Joe,Doe,2
Justin,Doe,3
Jill,Doe,1
Joe,Doe,2
Justin,Doe,3
Jill,Doe,1
Joe,Doe,2
Justin,Doe,3
Jill,Doe,1
Joe,Doe,2
Justin,Doe,3
Jill,Doe,1
Joe,Doe,2
Justin,Doe,3
Jill,Doe,1
Joe,Doe,2
Justin,Doe,3
Joe,Doe,2
Justin,Doe,3
Jill,Doe,1
Joe,Doe,2
Justin,Doe,3
Jill,Doe,1
Joe,Doe,2
Justin,Doe,3
Jill,Doe,1
Joe,Doe,2
Justin,Doe,3
Jill,Doe,1
Joe,Doe,2
Justin,Doe,3
Jill,Doe,1
Joe,Doe,2
Justin,Doe,3
Jill,Doe,1
Joe,Doe,2
Justin,Doe,3
Jill,Doe,1
Joe,Doe,2
Justin,Doe,3
Jill,Doe,1
Joe,Doe,2
Justin,Doe,3
Jill,Doe,1
Joe,Doe,2
Justin,Doe,3
Jill,Doe,1
Joe,Doe,2
Justin,Doe,3
Jill,Doe,1
Joe,Doe,2
Justin,Doe,3
Jill,Doe,1
Joe,Doe,2
Justin,Doe,3
Jill,Doe,1
Joe,Doe,2
Justin,Doe,3
Jill,Doe,1
Joe,Doe,2
Justin,Doe,3
Jill,Doe,1
Joe,Doe,2
Justin,Doe,3
Jill,Doe,1
Joe,Doe,2
Justin,Doe,3
Jill,Doe,1
Joe,Doe,2
Justin,Doe,3
Jill,Doe,1
Joe,Doe,2
Justin,Doe,3
Joe,Doe,2
Justin,Doe,3
Jill,Doe,1
Joe,Doe,2
Justin,Doe,3
Jill,Doe,1
Joe,Doe,2
Justin,Doe,3
Jill,Doe,1
Joe,Doe,2
Justin,Doe,3
Jill,Doe,1
Joe,Doe,2
Justin,Doe,3
Jill,Doe,1
Joe,Doe,2
Justin,Doe,3
Jill,Doe,1
Joe,Doe,2
Justin,Doe,3
Jill,Doe,1
Joe,Doe,2
Justin,Doe,3
Jill,Doe,1
Joe,Doe,2
Justin,Doe,3
Jill,Doe,1
Joe,Doe,2
Justin,Doe,3
Jill,Doe,1
Joe,Doe,2
Justin,Doe,3
Jill,Doe,1
Joe,Doe,2
Justin,Doe,3
Jill,Doe,1
Joe,Doe,2
Justin,Doe,3
Jill,Doe,1
Joe,Doe,2
Justin,Doe,3
Jill,Doe,1
Joe,Doe,2
Justin,Doe,3
Jill,Doe,1
Joe,Doe,2
Justin,Doe,3
Jill,Doe,1
Joe,Doe,2
Justin,Doe,3
Jill,Doe,1
Joe,Doe,2
Justin,Doe,3
Jill,Doe,1
Joe,Doe,2
Justin,Doe,3
Joe,Doe,2
Justin,Doe,3
Jill,Doe,1
Joe,Doe,2
Justin,Doe,3
Jill,Doe,1
Joe,Doe,2
Justin,Doe,3
Jill,Doe,1
Joe,Doe,2
Justin,Doe,3
Jill,Doe,1
Joe,Doe,2
Justin,Doe,3
Jill,Doe,1
Joe,Doe,2
Justin,Doe,3
Jill,Doe,1
Joe,Doe,2
Justin,Doe,3
Jill,Doe,1
Joe,Doe,2
Justin,Doe,3
Jill,Doe,1
Joe,Doe,2
Justin,Doe,3
Jill,Doe,1
Joe,Doe,2
Justin,Doe,3
Jill,Doe,1
Joe,Doe,2
Justin,Doe,3
Jill,Doe,1
Joe,Doe,2
Justin,Doe,3
Jill,Doe,1
Joe,Doe,2
Justin,Doe,3
Jill,Doe,1
Joe,Doe,2
Justin,Doe,3
Jill,Doe,1
Joe,Doe,2
Justin,Doe,3
Jill,Doe,1
Joe,Doe,2
Justin,Doe,3
Jill,Doe,1
Joe,Doe,2
Justin,Doe,3
Jill,Doe,1
Joe,Doe,2
Justin,Doe,3
Jill,Doe,1
Joe,Doe,2
Justin,Doe,3
Joe,Doe,2
Justin,Doe,3
Jill,Doe,1
Joe,Doe,2
Justin,Doe,3
Jill,Doe,1
Joe,Doe,2
Justin,Doe,3
Jill,Doe,1
Joe,Doe,2
Justin,Doe,3
Jill,Doe,1
Joe,Doe,2
Justin,Doe,3
Jill,Doe,1
Joe,Doe,2
Justin,Doe,3
Jill,Doe,1
Joe,Doe,2
Justin,Doe,3
Jill,Doe,1
Joe,Doe,2
Justin,Doe,3
Jill,Doe,1
Joe,Doe,2
Justin,Doe,3
Jill,Doe,1
Joe,Doe,2
Justin,Doe,3
Jill,Doe,1
Joe,Doe,2
Justin,Doe,3
Jill,Doe,1
Joe,Doe,2
Justin,Doe,3
Jill,Doe,1
Joe,Doe,2
Justin,Doe,3
Jill,Doe,1
Joe,Doe,2
Justin,Doe,3
Jill,Doe,1
Joe,Doe,2
Justin,Doe,3
Jill,Doe,1
Joe,Doe,2
Justin,Doe,3
Jill,Doe,1
Joe,Doe,2
Justin,Doe,3
Jill,Doe,1
Joe,Doe,2
Justin,Doe,3
Jill,Doe,1
Joe,Doe,2
Justin,Doe,3
Joe,Doe,2
Justin,Doe,3
Jill,Doe,1
Joe,Doe,2
Justin,Doe,3
Jill,Doe,1
Joe,Doe,2
Justin,Doe,3
Jill,Doe,1
Joe,Doe,2
Justin,Doe,3
Jill,Doe,1
Joe,Doe,2
Justin,Doe,3
Jill,Doe,1
Joe,Doe,2
Justin,Doe,3
Jill,Doe,1
Joe,Doe,2
Justin,Doe,3
Jill,Doe,1
Joe,Doe,2
Justin,Doe,3
Jill,Doe,1
Joe,Doe,2
Justin,Doe,3
Jill,Doe,1
Joe,Doe,2
Justin,Doe,3
Jill,Doe,1
Joe,Doe,2
Justin,Doe,3
Jill,Doe,1
Joe,Doe,2
Justin,Doe,3
Jill,Doe,1
Joe,Doe,2
Justin,Doe,3
Jill,Doe,1
Joe,Doe,2
Justin,Doe,3
Jill,Doe,1
Joe,Doe,2
Justin,Doe,3
Jill,Doe,1
Joe,Doe,2
Justin,Doe,3
Jill,Doe,1
Joe,Doe,2
Justin,Doe,3
Jill,Doe,1
Joe,Doe,2
Justin,Doe,3
Jill,Doe,1
Joe,Doe,2
Justin,Doe,3
Joe,Doe,2
Justin,Doe,3
Jill,Doe,1
Joe,Doe,2
Justin,Doe,3
Jill,Doe,1
Joe,Doe,2
Justin,Doe,3
Jill,Doe,1
Joe,Doe,2
Justin,Doe,3
Jill,Doe,1
Joe,Doe,2
Justin,Doe,3
Jill,Doe,1
Joe,Doe,2
Justin,Doe,3
Jill,Doe,1
Joe,Doe,2
Justin,Doe,3
Jill,Doe,1
Joe,Doe,2
Justin,Doe,3
Jill,Doe,1
Joe,Doe,2
Justin,Doe,3
Jill,Doe,1
Joe,Doe,2
Justin,Doe,3
Jill,Doe,1
Joe,Doe,2
Justin,Doe,3
Jill,Doe,1
Joe,Doe,2
Justin,Doe,3
Jill,Doe,1
Joe,Doe,2
Justin,Doe,3
Jill,Doe,1
Joe,Doe,2
Justin,Doe,3
Jill,Doe,1
Joe,Doe,2
Justin,Doe,3
Jill,Doe,1
Joe,Doe,2
Justin,Doe,3
Jill,Doe,1
Joe,Doe,2
Justin,Doe,3
Jill,Doe,1
Joe,Doe,2
Justin,Doe,3
Jill,Doe,1
Joe,Doe,2
Justin,Doe,3
Joe,Doe,2
Justin,Doe,3
Jill,Doe,1
Joe,Doe,2
Justin,Doe,3
Jill,Doe,1
Joe,Doe,2
Justin,Doe,3
Jill,Doe,1
Joe,Doe,2
Justin,Doe,3
Jill,Doe,1
Joe,Doe,2
Justin,Doe,3
Jill,Doe,1
Joe,Doe,2
Justin,Doe,3
Jill,Doe,1
Joe,Doe,2
Justin,Doe,3
Jill,Doe,1
Joe,Doe,2
Justin,Doe,3
Jill,Doe,1
Joe,Doe,2
Justin,Doe,3
Jill,Doe,1
Joe,Doe,2
Justin,Doe,3
Jill,Doe,1
Joe,Doe,2
Justin,Doe,3
Jill,Doe,1
Joe,Doe,2
Justin,Doe,3
Jill,Doe,1
Joe,Doe,2
Justin,Doe,3
Jill,Doe,1
Joe,Doe,2
Justin,Doe,3
Jill,Doe,1
Joe,Doe,2
Justin,Doe,3
Jill,Doe,1
Joe,Doe,2
Justin,Doe,3
Jill,Doe,1
Joe,Doe,2
Justin,Doe,3
Jill,Doe,1
Joe,Doe,2
Justin,Doe,3
Jill,Doe,1
Joe,Doe,2
Justin,Doe,3
Joe,Doe,2
Justin,Doe,3
Jill,Doe,1
Joe,Doe,2
Justin,Doe,3
Jill,Doe,1
Joe,Doe,2
Justin,Doe,3
Jill,Doe,1
Joe,Doe,2
Justin,Doe,3
Jill,Doe,1
Joe,Doe,2
Justin,Doe,3
Jill,Doe,1
Joe,Doe,2
Justin,Doe,3
Jill,Doe,1
Joe,Doe,2
Justin,Doe,3
Jill,Doe,1
Joe,Doe,2
Justin,Doe,3
Jill,Doe,1
Joe,Doe,2
Justin,Doe,3
Jill,Doe,1
Joe,Doe,2
Justin,Doe,3
Jill,Doe,1
Joe,Doe,2
Justin,Doe,3
Jill,Doe,1
Joe,Doe,2
Justin,Doe,3
Jill,Doe,1
Joe,Doe,2
Justin,Doe,3
Jill,Doe,1
Joe,Doe,2
Justin,Doe,3
Jill,Doe,1
Joe,Doe,2
Justin,Doe,3
Jill,Doe,1
Joe,Doe,2
Justin,Doe,3
Jill,Doe,1
Joe,Doe,2
Justin,Doe,3
Jill,Doe,1
Joe,Doe,2
Justin,Doe,3
Jill,Doe,1
Joe,Doe,2
Justin,Doe,3
Joe,Doe,2
Justin,Doe,3
Jill,Doe,1
Joe,Doe,2
Justin,Doe,3
Jill,Doe,1
Joe,Doe,2
Justin,Doe,3
Jill,Doe,1
Joe,Doe,2
Justin,Doe,3
Jill,Doe,1
Joe,Doe,2
Justin,Doe,3
Jill,Doe,1
Joe,Doe,2
Justin,Doe,3
Jill,Doe,1
Joe,Doe,2
Justin,Doe,3
Jill,Doe,1
Joe,Doe,2
Justin,Doe,3
Jill,Doe,1
Joe,Doe,2
Justin,Doe,3
Jill,Doe,1
Joe,Doe,2
Justin,Doe,3
Jill,Doe,1
Joe,Doe,2
Justin,Doe,3
Jill,Doe,1
Joe,Doe,2
Justin,Doe,3
Jill,Doe,1
Joe,Doe,2
Justin,Doe,3
Jill,Doe,1
Joe,Doe,2
Justin,Doe,3
Jill,Doe,1
Joe,Doe,2
Justin,Doe,3
Jill,Doe,1
Joe,Doe,2
Justin,Doe,3
Jill,Doe,1
Joe,Doe,2
Justin,Doe,3
Jill,Doe,1
Joe,Doe,2
Justin,Doe,3
Jill,Doe,1
Joe,Doe,2
Justin,Doe,3
Joe,Doe,2
Justin,Doe,3
Jill,Doe,1
Joe,Doe,2
Justin,Doe,3
Jill,Doe,1
Joe,Doe,2
Justin,Doe,3
Jill,Doe,1
Joe,Doe,2
Justin,Doe,3
Jill,Doe,1
Joe,Doe,2
Justin,Doe,3
Jill,Doe,1
Joe,Doe,2
Justin,Doe,3
Jill,Doe,1
Joe,Doe,2
Justin,Doe,3
Jill,Doe,1
Joe,Doe,2
Justin,Doe,3
Jill,Doe,1
Joe,Doe,2
Justin,Doe,3
Jill,Doe,1
Joe,Doe,2
Justin,Doe,3
Jill,Doe,1
Joe,Doe,2
Justin,Doe,3
Jill,Doe,1
Joe,Doe,2
Justin,Doe,3
Jill,Doe,1
Joe,Doe,2
Justin,Doe,3
Jill,Doe,1
Joe,Doe,2
Justin,Doe,3
Jill,Doe,1
Joe,Doe,2
Justin,Doe,3
Jill,Doe,1
Joe,Doe,2
Justin,Doe,3
Jill,Doe,1
Joe,Doe,2
Justin,Doe,3
Jill,Doe,1
Joe,Doe,2
Justin,Doe,3
Jill,Doe,1
Joe,Doe,2
Justin,Doe,3
Joe,Doe,2
Justin,Doe,3
Jill,Doe,1
Joe,Doe,2
Justin,Doe,3
Jill,Doe,1
Joe,Doe,2
Justin,Doe,3
Jill,Doe,1
Joe,Doe,2
Justin,Doe,3
Jill,Doe,1
Joe,Doe,2
Justin,Doe,3
Jill,Doe,1
Joe,Doe,2
Justin,Doe,3
Jill,Doe,1
Joe,Doe,2
Justin,Doe,3
Jill,Doe,1
Joe,Doe,2
Justin,Doe,3
Jill,Doe,1
Joe,Doe,2
Justin,Doe,3
Jill,Doe,1
Joe,Doe,2
Justin,Doe,3
Jill,Doe,1
Joe,Doe,2
Justin,Doe,3
Jill,Doe,1
Joe,Doe,2
Justin,Doe,3
Jill,Doe,1
Joe,Doe,2
Justin,Doe,3
Jill,Doe,1
Joe,Doe,2
Justin,Doe,3
Jill,Doe,1
Joe,Doe,2
Justin,Doe,3
Jill,Doe,1
Joe,Doe,2
Justin,Doe,3
Jill,Doe,1
Joe,Doe,2
Justin,Doe,3
Jill,Doe,1
Joe,Doe,2
Justin,Doe,3
Jill,Doe,1
Joe,Doe,2
Justin,Doe,3
Joe,Doe,2
Justin,Doe,3
Jill,Doe,1
Joe,Doe,2
Justin,Doe,3
Jill,Doe,1
Joe,Doe,2
Justin,Doe,3
Jill,Doe,1
Joe,Doe,2
Justin,Doe,3
Jill,Doe,1
Joe,Doe,2
Justin,Doe,3
Jill,Doe,1
Joe,Doe,2
Justin,Doe,3
Jill,Doe,1
Joe,Doe,2
Justin,Doe,3
Jill,Doe,1
Joe,Doe,2
Justin,Doe,3
Jill,Doe,1
Joe,Doe,2
Justin,Doe,3
Jill,Doe,1
Joe,Doe,2
Justin,Doe,3
Jill,Doe,1
Joe,Doe,2
Justin,Doe,3
Jill,Doe,1
Joe,Doe,2
Justin,Doe,3
Jill,Doe,1
Joe,Doe,2
Justin,Doe,3
Jill,Doe,1
Joe,Doe,2
Justin,Doe,3
Jill,Doe,1
Joe,Doe,2
Justin,Doe,3
Jill,Doe,1
Joe,Doe,2
Justin,Doe,3
Jill,Doe,1
Joe,Doe,2
Justin,Doe,3
Jill,Doe,1
Joe,Doe,2
Justin,Doe,3
Jill,Doe,1
Joe,Doe,2
Justin,Doe,3
Joe,Doe,2
Justin,Doe,3
Jill,Doe,1
Joe,Doe,2
Justin,Doe,3
Jill,Doe,1
Joe,Doe,2
Justin,Doe,3
Jill,Doe,1
Joe,Doe,2
Justin,Doe,3
Jill,Doe,1
Joe,Doe,2
Justin,Doe,3
Jill,Doe,1
Joe,Doe,2
Justin,Doe,3
Jill,Doe,1
Joe,Doe,2
Justin,Doe,3
Jill,Doe,1
Joe,Doe,2
Justin,Doe,3
Jill,Doe,1
Joe,Doe,2
Justin,Doe,3
Jill,Doe,1
Joe,Doe,2
Justin,Doe,3
Jill,Doe,1
Joe,Doe,2
Justin,Doe,3
Jill,Doe,1
Joe,Doe,2
Justin,Doe,3
Jill,Doe,1
Joe,Doe,2
Justin,Doe,3
Jill,Doe,1
Joe,Doe,2
Justin,Doe,3
Jill,Doe,1
Joe,Doe,2
Justin,Doe,3
Jill,Doe,1
Joe,Doe,2
Justin,Doe,3
Jill,Doe,1
Joe,Doe,2
Justin,Doe,3
Jill,Doe,1
Joe,Doe,2
Justin,Doe,3
Jill,Doe,1
Joe,Doe,2
Justin,Doe,3
Joe,Doe,2
Justin,Doe,3
Jill,Doe,1
Joe,Doe,2
Justin,Doe,3
Jill,Doe,1
Joe,Doe,2
Justin,Doe,3
Jill,Doe,1
Joe,Doe,2
Justin,Doe,3
Jill,Doe,1
Joe,Doe,2
Justin,Doe,3
Jill,Doe,1
Joe,Doe,2
Justin,Doe,3
Jill,Doe,1
Joe,Doe,2
Justin,Doe,3
Jill,Doe,1
Joe,Doe,2
Justin,Doe,3
Jill,Doe,1
Joe,Doe,2
Justin,Doe,3
Jill,Doe,1
Joe,Doe,2
Justin,Doe,3
Jill,Doe,1
Joe,Doe,2
Justin,Doe,3
Jill,Doe,1
Joe,Doe,2
Justin,Doe,3
Jill,Doe,1
Joe,Doe,2
Justin,Doe,3
Jill,Doe,1
Joe,Doe,2
Justin,Doe,3
Jill,Doe,1
Joe,Doe,2
Justin,Doe,3
Jill,Doe,1
Joe,Doe,2
Justin,Doe,3
Jill,Doe,1
Joe,Doe,2
Justin,Doe,3
Jill,Doe,1
Joe,Doe,2
Justin,Doe,3
Jill,Doe,1
Joe,Doe,2
Justin,Doe,3
Joe,Doe,2
Justin,Doe,3
Jill,Doe,1
Joe,Doe,2
Justin,Doe,3
Jill,Doe,1
Joe,Doe,2
Justin,Doe,3
Jill,Doe,1
Joe,Doe,2
Justin,Doe,3
Jill,Doe,1
Joe,Doe,2
Justin,Doe,3
Jill,Doe,1
Joe,Doe,2
Justin,Doe,3
Jill,Doe,1
Joe,Doe,2
Justin,Doe,3
Jill,Doe,1
Joe,Doe,2
Justin,Doe,3
Jill,Doe,1
Joe,Doe,2
Justin,Doe,3
Jill,Doe,1
Joe,Doe,2
Justin,Doe,3
Jill,Doe,1
Joe,Doe,2
Justin,Doe,3
Jill,Doe,1
Joe,Doe,2
Justin,Doe,3
Jill,Doe,1
Joe,Doe,2
Justin,Doe,3
Jill,Doe,1
Joe,Doe,2
Justin,Doe,3
Jill,Doe,1
Joe,Doe,2
Justin,Doe,3
Jill,Doe,1
Joe,Doe,2
Justin,Doe,3
Jill,Doe,1
Joe,Doe,2
Justin,Doe,3
Jill,Doe,1
Joe,Doe,2
Justin,Doe,3
Jill,Doe,1
Joe,Doe,2
Justin,Doe,3
Joe,Doe,2
Justin,Doe,3
Jill,Doe,1
Joe,Doe,2
Justin,Doe,3
Jill,Doe,1
Joe,Doe,2
Justin,Doe,3
Jill,Doe,1
Joe,Doe,2
Justin,Doe,3
Jill,Doe,1
Joe,Doe,2
Justin,Doe,3
Jill,Doe,1
Joe,Doe,2
Justin,Doe,3
Jill,Doe,1
Joe,Doe,2
Justin,Doe,3
Jill,Doe,1
Joe,Doe,2
Justin,Doe,3
Jill,Doe,1
Joe,Doe,2
Justin,Doe,3
Jill,Doe,1
Joe,Doe,2
Justin,Doe,3
Jill,Doe,1
Joe,Doe,2
Justin,Doe,3
Jill,Doe,1
Joe,Doe,2
Justin,Doe,3
Jill,Doe,1
Joe,Doe,2
Justin,Doe,3
Jill,Doe,1
Joe,Doe,2
Justin,Doe,3
Jill,Doe,1
Joe,Doe,2
Justin,Doe,3
Jill,Doe,1
Joe,Doe,2
Justin,Doe,3
Jill,Doe,1
Joe,Doe,2
Justin,Doe,3
Jill,Doe,1
Joe,Doe,2
Justin,Doe,3
Jill,Doe,1
Joe,Doe,2
Justin,Doe,3
Joe,Doe,2
Justin,Doe,3
Jill,Doe,1
Joe,Doe,2
Justin,Doe,3
Jill,Doe,1
Joe,Doe,2
Justin,Doe,3
Joe,Doe,2
Justin,Doe,3
Jill,Doe,1
Joe,Doe,2
Justin,Doe,3
Jill,Doe,1
Joe,Doe,2
Justin,Doe,3
Jill,Doe,1
Joe,Doe,2
Justin,Doe,3
Jill,Doe,1
Joe,Doe,2
Justin,Doe,3
Jill,Doe,1
Joe,Doe,2
Justin,Doe,3
Jill,Doe,1
Joe,Doe,2
Justin,Doe,3
Jill,Doe,1
Joe,Doe,2
Justin,Doe,3
Jill,Doe,1
Joe,Doe,2
Justin,Doe,3
Jill,Doe,1
Joe,Doe,2
Justin,Doe,3
Jill,Doe,1
Joe,Doe,2
Justin,Doe,3
Jill,Doe,1
Joe,Doe,2
Justin,Doe,3
Jill,Doe,1
Joe,Doe,2
Justin,Doe,3
Jill,Doe,1
Joe,Doe,2
Justin,Doe,3
Jill,Doe,1
Joe,Doe,2
Justin,Doe,3
Jill,Doe,1
Joe,Doe,2
Justin,Doe,3
Joe,Doe,2
Justin,Doe,3
Jill,Doe,1
Joe,Doe,2
Justin,Doe,3
Jill,Doe,1
Joe,Doe,2
Justin,Doe,3
Jill,Doe,1
Joe,Doe,2
Justin,Doe,3
Jill,Doe,1
Joe,Doe,2
Justin,Doe,3
Jill,Doe,1
Joe,Doe,2
Justin,Doe,3
Jill,Doe,1
Joe,Doe,2
Justin,Doe,3
Jill,Doe,1
Joe,Doe,2
Justin,Doe,3
Jill,Doe,1
Joe,Doe,2
Justin,Doe,3
Jill,Doe,1
Joe,Doe,2
Justin,Doe,3
Jill,Doe,1
Joe,Doe,2
Justin,Doe,3
Jill,Doe,1
Joe,Doe,2
Justin,Doe,3
Jill,Doe,1
Joe,Doe,2
Justin,Doe,3
Jill,Doe,1
Joe,Doe,2
Justin,Doe,3
Jill,Doe,1
Joe,Doe,2
Justin,Doe,3
Jill,Doe,1
Joe,Doe,2
Justin,Doe,3
Jill,Doe,1
Joe,Doe,2
Justin,Doe,3
Jill,Doe,1
Joe,Doe,2
Justin,Doe,3
Jill,Doe,1
Joe,Doe,2
Justin,Doe,3
Joe,Doe,2
Justin,Doe,3
Jill,Doe,1
Joe,Doe,2
Justin,Doe,3
Jill,Doe,1
Joe,Doe,2
Justin,Doe,3
Jill,Doe,1
Joe,Doe,2
Justin,Doe,3
Jill,Doe,1
Joe,Doe,2
Justin,Doe,3
Jill,Doe,1
Joe,Doe,2
Justin,Doe,3
Jill,Doe,1
Joe,Doe,2
Justin,Doe,3
Jill,Doe,1
Joe,Doe,2
Justin,Doe,3
Jill,Doe,1
Joe,Doe,2
Justin,Doe,3
Jill,Doe,1
Joe,Doe,2
Justin,Doe,3
Jill,Doe,1
Joe,Doe,2
Justin,Doe,3
Jill,Doe,1
Joe,Doe,2
Justin,Doe,3
Jill,Doe,1
Joe,Doe,2
Justin,Doe,3
Jill,Doe,1
Joe,Doe,2
Justin,Doe,3
Jill,Doe,1
Joe,Doe,2
Justin,Doe,3
Jill,Doe,1
Joe,Doe,2
Justin,Doe,3
Jill,Doe,1
Joe,Doe,2
Justin,Doe,3
Jill,Doe,1
Joe,Doe,2
Justin,Doe,3
Jill,Doe,1
Joe,Doe,2
Justin,Doe,3
Joe,Doe,2
Justin,Doe,3
Jill,Doe,1
Joe,Doe,2
Justin,Doe,3
Jill,Doe,1
Joe,Doe,2
Justin,Doe,3
Jill,Doe,1
Joe,Doe,2
Justin,Doe,3
Jill,Doe,1
Joe,Doe,2
Justin,Doe,3
Jill,Doe,1
Joe,Doe,2
Justin,Doe,3
Jill,Doe,1
Joe,Doe,2
Justin,Doe,3
Jill,Doe,1
Joe,Doe,2
Justin,Doe,3
Jill,Doe,1
Joe,Doe,2
Justin,Doe,3
Jill,Doe,1
Joe,Doe,2
Justin,Doe,3
Jill,Doe,1
Joe,Doe,2
Justin,Doe,3
Jill,Doe,1
Joe,Doe,2
Justin,Doe,3
Jill,Doe,1
Joe,Doe,2
Justin,Doe,3
Jill,Doe,1
Joe,Doe,2
Justin,Doe,3
Jill,Doe,1
Joe,Doe,2
Justin,Doe,3
Jill,Doe,1
Joe,Doe,2
Justin,Doe,3
Jill,Doe,1
Joe,Doe,2
Justin,Doe,3
Jill,Doe,1
Joe,Doe,2
Justin,Doe,3
Jill,Doe,1
Joe,Doe,2
Justin,Doe,3
Joe,Doe,2
Justin,Doe,3
Jill,Doe,1
Joe,Doe,2
Justin,Doe,3
Jill,Doe,1
Joe,Doe,2
Justin,Doe,3
Jill,Doe,1
Joe,Doe,2
Justin,Doe,3
Jill,Doe,1
Joe,Doe,2
Justin,Doe,3
Jill,Doe,1
Joe,Doe,2
Justin,Doe,3
Jill,Doe,1
Joe,Doe,2
Justin,Doe,3
Jill,Doe,1
Joe,Doe,2
Justin,Doe,3
Jill,Doe,1
Joe,Doe,2
Justin,Doe,3
Jill,Doe,1
Joe,Doe,2
Justin,Doe,3
Jill,Doe,1
Joe,Doe,2
Justin,Doe,3
Jill,Doe,1
Joe,Doe,2
Justin,Doe,3
Jill,Doe,1
Joe,Doe,2
Justin,Doe,3
Jill,Doe,1
Joe,Doe,2
Justin,Doe,3
Jill,Doe,1
Joe,Doe,2
Justin,Doe,3
Jill,Doe,1
Joe,Doe,2
Justin,Doe,3
Jill,Doe,1
Joe,Doe,2
Justin,Doe,3
Jill,Doe,1
Joe,Doe,2
Justin,Doe,3
Jill,Doe,1
Joe,Doe,2
Justin,Doe,3
Joe,Doe,2
Justin,Doe,3
Jill,Doe,1
Joe,Doe,2
Justin,Doe,3
Jill,Doe,1
Joe,Doe,2
Justin,Doe,3
Jill,Doe,1
Joe,Doe,2
Justin,Doe,3
Jill,Doe,1
Joe,Doe,2
Justin,Doe,3
Jill,Doe,1
Joe,Doe,2
Justin,Doe,3
Jill,Doe,1
Joe,Doe,2
Justin,Doe,3
Jill,Doe,1
Joe,Doe,2
Justin,Doe,3
Jill,Doe,1
Joe,Doe,2
Justin,Doe,3
Jill,Doe,1
Joe,Doe,2
Justin,Doe,3
Jill,Doe,1
Joe,Doe,2
Justin,Doe,3
Jill,Doe,1
Joe,Doe,2
Justin,Doe,3
Jill,Doe,1
Joe,Doe,2
Justin,Doe,3
Jill,Doe,1
Joe,Doe,2
Justin,Doe,3
Jill,Doe,1
Joe,Doe,2
Justin,Doe,3
Jill,Doe,1
Joe,Doe,2
Justin,Doe,3
Jill,Doe,1
Joe,Doe,2
Justin,Doe,3
Jill,Doe,1
Joe,Doe,2
Justin,Doe,3
Jill,Doe,1
Joe,Doe,2
Justin,Doe,3
Joe,Doe,2
Justin,Doe,3
Jill,Doe,1
Joe,Doe,2
Justin,Doe,3
Jill,Doe,1
Joe,Doe,2
Justin,Doe,3
Jill,Doe,1
Joe,Doe,2
Justin,Doe,3
Jill,Doe,1
Joe,Doe,2
Justin,Doe,3
Jill,Doe,1
Joe,Doe,2
Justin,Doe,3
Jill,Doe,1
Joe,Doe,2
Justin,Doe,3
Jill,Doe,1
Joe,Doe,2
Justin,Doe,3
Jill,Doe,1
Joe,Doe,2
Justin,Doe,3
Jill,Doe,1
Joe,Doe,2
Justin,Doe,3
Jill,Doe,1
Joe,Doe,2
Justin,Doe,3
Jill,Doe,1
Joe,Doe,2
Justin,Doe,3
Jill,Doe,1
Joe,Doe,2
Justin,Doe,3
Jill,Doe,1
Joe,Doe,2
Justin,Doe,3
Jill,Doe,1
Joe,Doe,2
Justin,Doe,3
Jill,Doe,1
Joe,Doe,2
Justin,Doe,3
Jill,Doe,1
Joe,Doe,2
Justin,Doe,3
Jill,Doe,1
Joe,Doe,2
Justin,Doe,3
Jill,Doe,1
Joe,Doe,2
Justin,Doe,3
Joe,Doe,2
Justin,Doe,3
Jill,Doe,1
Joe,Doe,2
Justin,Doe,3
Jill,Doe,1
Joe,Doe,2
Justin,Doe,3
Jill,Doe,1
Joe,Doe,2
Justin,Doe,3
Jill,Doe,1
Joe,Doe,2
Justin,Doe,3
Jill,Doe,1
Joe,Doe,2
Justin,Doe,3
Jill,Doe,1
Joe,Doe,2
Justin,Doe,3
Jill,Doe,1
Joe,Doe,2
Justin,Doe,3
Jill,Doe,1
Joe,Doe,2
Justin,Doe,3
Jill,Doe,1
Joe,Doe,2
Justin,Doe,3
Jill,Doe,1
Joe,Doe,2
Justin,Doe,3
Jill,Doe,1
Joe,Doe,2
Justin,Doe,3
Jill,Doe,1
Joe,Doe,2
Justin,Doe,3
Jill,Doe,1
Joe,Doe,2
Justin,Doe,3
Jill,Doe,1
Joe,Doe,2
Justin,Doe,3
Jill,Doe,1
Joe,Doe,2
Justin,Doe,3
Jill,Doe,1
Joe,Doe,2
Justin,Doe,3
Jill,Doe,1
Joe,Doe,2
Justin,Doe,3
Jill,Doe,1
Joe,Doe,2
Justin,Doe,3
Joe,Doe,2
Justin,Doe,3
Jill,Doe,1
Joe,Doe,2
Justin,Doe,3
Jill,Doe,1
Joe,Doe,2
Justin,Doe,3
Jill,Doe,1
Joe,Doe,2
Justin,Doe,3
Jill,Doe,1
Joe,Doe,2
Justin,Doe,3
Jill,Doe,1
Joe,Doe,2
Justin,Doe,3
Jill,Doe,1
Joe,Doe,2
Justin,Doe,3
Jill,Doe,1
Joe,Doe,2
Justin,Doe,3
Jill,Doe,1
Joe,Doe,2
Justin,Doe,3
Jill,Doe,1
Joe,Doe,2
Justin,Doe,3
Jill,Doe,1
Joe,Doe,2
Justin,Doe,3
Jill,Doe,1
Joe,Doe,2
Justin,Doe,3
Jill,Doe,1
Joe,Doe,2
Justin,Doe,3
Jill,Doe,1
Joe,Doe,2
Justin,Doe,3
Jill,Doe,1
Joe,Doe,2
Justin,Doe,3
Jill,Doe,1
Joe,Doe,2
Justin,Doe,3
Jill,Doe,1
Joe,Doe,2
Justin,Doe,3
Jill,Doe,1
Joe,Doe,2
Justin,Doe,3
Jill,Doe,1
Joe,Doe,2
Justin,Doe,3
Joe,Doe,2
Justin,Doe,3
Jill,Doe,1
Joe,Doe,2
Justin,Doe,3
Jill,Doe,1
Joe,Doe,2
Justin,Doe,3
Jill,Doe,1
Joe,Doe,2
Justin,Doe,3
Jill,Doe,1
Joe,Doe,2
Justin,Doe,3
Jill,Doe,1
Joe,Doe,2
Justin,Doe,3
Jill,Doe,1
Joe,Doe,2
Justin,Doe,3
Jill,Doe,1
Joe,Doe,2
Justin,Doe,3
Jill,Doe,1
Joe,Doe,2
Justin,Doe,3
Jill,Doe,1
Joe,Doe,2
Justin,Doe,3
Jill,Doe,1
Joe,Doe,2
Justin,Doe,3
Jill,Doe,1
Joe,Doe,2
Justin,Doe,3
Jill,Doe,1
Joe,Doe,2
Justin,Doe,3
Jill,Doe,1
Joe,Doe,2
Justin,Doe,3
Jill,Doe,1
Joe,Doe,2
Justin,Doe,3
Jill,Doe,1
Joe,Doe,2
Justin,Doe,3
Jill,Doe,1
Joe,Doe,2
Justin,Doe,3
Jill,Doe,1
Joe,Doe,2
Justin,Doe,3
Jill,Doe,1
Joe,Doe,2
Justin,Doe,3
Joe,Doe,2
Justin,Doe,3
Jill,Doe,1
Joe,Doe,2
Justin,Doe,3
Jill,Doe,1
Joe,Doe,2
Justin,Doe,3
Jill,Doe,1
Joe,Doe,2
Justin,Doe,3
Jill,Doe,1
Joe,Doe,2
Justin,Doe,3
Jill,Doe,1
Joe,Doe,2
Justin,Doe,3
Jill,Doe,1
Joe,Doe,2
Justin,Doe,3
Jill,Doe,1
Joe,Doe,2
Justin,Doe,3
Jill,Doe,1
Joe,Doe,2
Justin,Doe,3
Jill,Doe,1
Joe,Doe,2
Justin,Doe,3
Jill,Doe,1
Joe,Doe,2
Justin,Doe,3
Jill,Doe,1
Joe,Doe,2
Justin,Doe,3
Jill,Doe,1
Joe,Doe,2
Justin,Doe,3
Jill,Doe,1
Joe,Doe,2
Justin,Doe,3
Jill,Doe,1
Joe,Doe,2
Justin,Doe,3
Jill,Doe,1
Joe,Doe,2
Justin,Doe,3
Jill,Doe,1
Joe,Doe,2
Justin,Doe,3
Jill,Doe,1
Joe,Doe,2
Justin,Doe,3
Jill,Doe,1
Joe,Doe,2
Justin,Doe,3
Joe,Doe,2
Justin,Doe,3
Jill,Doe,1
Joe,Doe,2
Justin,Doe,3
Jill,Doe,1
Joe,Doe,2
Justin,Doe,3
Jill,Doe,1
Joe,Doe,2
Justin,Doe,3
Jill,Doe,1
Joe,Doe,2
Justin,Doe,3
Jill,Doe,1
Joe,Doe,2
Justin,Doe,3
Jill,Doe,1
Joe,Doe,2
Justin,Doe,3
Jill,Doe,1
Joe,Doe,2
Justin,Doe,3
Jill,Doe,1
Joe,Doe,2
Justin,Doe,3
Jill,Doe,1
Joe,Doe,2
Justin,Doe,3
Jill,Doe,1
Joe,Doe,2
Justin,Doe,3
Jill,Doe,1
Joe,Doe,2
Justin,Doe,3
Jill,Doe,1
Joe,Doe,2
Justin,Doe,3
Jill,Doe,1
Joe,Doe,2
Justin,Doe,3
Jill,Doe,1
Joe,Doe,2
Justin,Doe,3
Jill,Doe,1
Joe,Doe,2
Justin,Doe,3
Jill,Doe,1
Joe,Doe,2
Justin,Doe,3
Jill,Doe,1
Joe,Doe,2
Justin,Doe,3
Jill,Doe,1
Joe,Doe,2
Justin,Doe,3
Joe,Doe,2
Justin,Doe,3
Jill,Doe,1
Joe,Doe,2
Justin,Doe,3
Jill,Doe,1
Joe,Doe,2
Justin,Doe,3
Jill,Doe,1
Joe,Doe,2
Justin,Doe,3
Jill,Doe,1
Joe,Doe,2
Justin,Doe,3
Jill,Doe,1
Joe,Doe,2
Justin,Doe,3
Jill,Doe,1
Joe,Doe,2
Justin,Doe,3
Jill,Doe,1
Joe,Doe,2
Justin,Doe,3
Jill,Doe,1
Joe,Doe,2
Justin,Doe,3
Jill,Doe,1
Joe,Doe,2
Justin,Doe,3
Jill,Doe,1
Joe,Doe,2
Justin,Doe,3
Jill,Doe,1
Joe,Doe,2
Justin,Doe,3
Jill,Doe,1
Joe,Doe,2
Justin,Doe,3
Jill,Doe,1
Joe,Doe,2
Justin,Doe,3
Jill,Doe,1
Joe,Doe,2
Justin,Doe,3
Jill,Doe,1
Joe,Doe,2
Justin,Doe,3
Jill,Doe,1
Joe,Doe,2
Justin,Doe,3
Jill,Doe,1
Joe,Doe,2
Justin,Doe,3
Jill,Doe,1
Joe,Doe,2
Justin,Doe,3
Joe,Doe,2
Justin,Doe,3
Jill,Doe,1
Joe,Doe,2
Justin,Doe,3
Jill,Doe,1
Joe,Doe,2
Justin,Doe,3
Jill,Doe,1
Joe,Doe,2
Justin,Doe,3
Jill,Doe,1
Joe,Doe,2
Justin,Doe,3
Jill,Doe,1
Joe,Doe,2
Justin,Doe,3
Jill,Doe,1
Joe,Doe,2
Justin,Doe,3
Jill,Doe,1
Joe,Doe,2
Justin,Doe,3
Jill,Doe,1
Joe,Doe,2
Justin,Doe,3
Jill,Doe,1
Joe,Doe,2
Justin,Doe,3
Jill,Doe,1
Joe,Doe,2
Justin,Doe,3
Jill,Doe,1
Joe,Doe,2
Justin,Doe,3
Jill,Doe,1
Joe,Doe,2
Justin,Doe,3
Jill,Doe,1
Joe,Doe,2
Justin,Doe,3
Jill,Doe,1
Joe,Doe,2
Justin,Doe,3
Jill,Doe,1
Joe,Doe,2
Justin,Doe,3
Jill,Doe,1
Joe,Doe,2
Justin,Doe,3
Jill,Doe,1
Joe,Doe,2
Justin,Doe,3
Jill,Doe,1
Joe,Doe,2
Justin,Doe,3
Joe,Doe,2
Justin,Doe,3
Jill,Doe,1
Joe,Doe,2
Justin,Doe,3
Jill,Doe,1
Joe,Doe,2
Justin,Doe,3
Jill,Doe,1
Joe,Doe,2
Justin,Doe,3
Jill,Doe,1
Joe,Doe,2
Justin,Doe,3
Jill,Doe,1
Joe,Doe,2
Justin,Doe,3
Jill,Doe,1
Joe,Doe,2
Justin,Doe,3
Jill,Doe,1
Joe,Doe,2
Justin,Doe,3
Jill,Doe,1
Joe,Doe,2
Justin,Doe,3
Jill,Doe,1
Joe,Doe,2
Justin,Doe,3
Jill,Doe,1
Joe,Doe,2
Justin,Doe,3
Jill,Doe,1
Joe,Doe,2
Justin,Doe,3
Jill,Doe,1
Joe,Doe,2
Justin,Doe,3
Jill,Doe,1
Joe,Doe,2
Justin,Doe,3
Jill,Doe,1
Joe,Doe,2
Justin,Doe,3
Jill,Doe,1
Joe,Doe,2
Justin,Doe,3
Jill,Doe,1
Joe,Doe,2
Justin,Doe,3
Jill,Doe,1
Joe,Doe,2
Justin,Doe,3
Jill,Doe,1
Joe,Doe,2
Justin,Doe,3
Joe,Doe,2
Justin,Doe,3
Jill,Doe,1
Joe,Doe,2
Justin,Doe,3
Jill,Doe,1
Joe,Doe,2
Justin,Doe,3
Jill,Doe,1
Joe,Doe,2
Justin,Doe,3
Jill,Doe,1
Joe,Doe,2
Justin,Doe,3
Jill,Doe,1
Joe,Doe,2
Justin,Doe,3
Jill,Doe,1
Joe,Doe,2
Justin,Doe,3
Jill,Doe,1
Joe,Doe,2
Justin,Doe,3
Jill,Doe,1
Joe,Doe,2
Justin,Doe,3
Jill,Doe,1
Joe,Doe,2
Justin,Doe,3
Jill,Doe,1
Joe,Doe,2
Justin,Doe,3
Jill,Doe,1
Joe,Doe,2
Justin,Doe,3
Jill,Doe,1
Joe,Doe,2
Justin,Doe,3
Jill,Doe,1
Joe,Doe,2
Justin,Doe,3
Jill,Doe,1
Joe,Doe,2
Justin,Doe,3
Jill,Doe,1
Joe,Doe,2
Justin,Doe,3
Jill,Doe,1
Joe,Doe,2
Justin,Doe,3
Jill,Doe,1
Joe,Doe,2
Justin,Doe,3
Jill,Doe,1
Joe,Doe,2
Justin,Doe,3
Joe,Doe,2
Justin,Doe,3
Jill,Doe,1
Joe,Doe,2
Justin,Doe,3
Jill,Doe,1
Joe,Doe,2
Justin,Doe,3
Jill,Doe,1
Joe,Doe,2
Justin,Doe,3
Jill,Doe,1
Joe,Doe,2
Justin,Doe,3
Jill,Doe,1
Joe,Doe,2
Justin,Doe,3
Jill,Doe,1
Joe,Doe,2
Justin,Doe,3
Jill,Doe,1
Joe,Doe,2
Justin,Doe,3
Jill,Doe,1
Joe,Doe,2
Justin,Doe,3
Jill,Doe,1
Joe,Doe,2
Justin,Doe,3
Jill,Doe,1
Joe,Doe,2
Justin,Doe,3
Jill,Doe,1
Joe,Doe,2
Justin,Doe,3
Jill,Doe,1
Joe,Doe,2
Justin,Doe,3
Jill,Doe,1
Joe,Doe,2
Justin,Doe,3
Jill,Doe,1
Joe,Doe,2
Justin,Doe,3
Jill,Doe,1
Joe,Doe,2
Justin,Doe,3
Jill,Doe,1
Joe,Doe,2
Justin,Doe,3
Jill,Doe,1
Joe,Doe,2
Justin,Doe,3
Jill,Doe,1
Joe,Doe,2
Justin,Doe,3
Joe,Doe,2
Justin,Doe,3
Jill,Doe,1
Joe,Doe,2
Justin,Doe,3
Jill,Doe,1
Joe,Doe,2
Justin,Doe,3
Jill,Doe,1
Joe,Doe,2
Justin,Doe,3
Jill,Doe,1
Joe,Doe,2
Justin,Doe,3
Jill,Doe,1
Joe,Doe,2
Justin,Doe,3
Jill,Doe,1
Joe,Doe,2
Justin,Doe,3
Jill,Doe,1
Joe,Doe,2
Justin,Doe,3
Jill,Doe,1
Joe,Doe,2
Justin,Doe,3
Jill,Doe,1
Joe,Doe,2
Justin,Doe,3
Jill,Doe,1
Joe,Doe,2
Justin,Doe,3
Jill,Doe,1
Joe,Doe,2
Justin,Doe,3
Jill,Doe,1
Joe,Doe,2
Justin,Doe,3
Jill,Doe,1
Joe,Doe,2
Justin,Doe,3
Jill,Doe,1
Joe,Doe,2
Justin,Doe,3
Jill,Doe,1
Joe,Doe,2
Justin,Doe,3
Jill,Doe,1
Joe,Doe,2
Justin,Doe,3
Jill,Doe,1
Joe,Doe,2
Justin,Doe,3
Jill,Doe,1
Joe,Doe,2
Justin,Doe,3
Joe,Doe,2
Justin,Doe,3
Jill,Doe,1
Joe,Doe,2
Justin,Doe,3
Jill,Doe,1
Joe,Doe,2
Justin,Doe,3
Jill,Doe,1
Joe,Doe,2
Justin,Doe,3
Jill,Doe,1
Joe,Doe,2
Justin,Doe,3
Jill,Doe,1
Joe,Doe,2
Justin,Doe,3
Jill,Doe,1
Joe,Doe,2
Justin,Doe,3
Jill,Doe,1
Joe,Doe,2
Justin,Doe,3
Jill,Doe,1
Joe,Doe,2
Justin,Doe,3
Jill,Doe,1
Joe,Doe,2
Justin,Doe,3
Jill,Doe,1
Joe,Doe,2
Justin,Doe,3
Jill,Doe,1
Joe,Doe,2
Justin,Doe,3
Jill,Doe,1
Joe,Doe,2
Justin,Doe,3
Jill,Doe,1
Joe,Doe,2
Justin,Doe,3
Jill,Doe,1
Joe,Doe,2
Justin,Doe,3
Jill,Doe,1
Joe,Doe,2
Justin,Doe,3
Jill,Doe,1
Joe,Doe,2
Justin,Doe,3
Jill,Doe,1
Joe,Doe,2
Justin,Doe,3
Jill,Doe,1
Joe,Doe,2
Justin,Doe,3
Joe,Doe,2
Justin,Doe,3
Jill,Doe,1
Joe,Doe,2
Justin,Doe,3
Jill,Doe,1
Joe,Doe,2
Justin,Doe,3
Jill,Doe,1
Joe,Doe,2
Justin,Doe,3
Jill,Doe,1
Joe,Doe,2
Justin,Doe,3
Jill,Doe,1
Joe,Doe,2
Justin,Doe,3
Jill,Doe,1
Joe,Doe,2
Justin,Doe,3
Jill,Doe,1
Joe,Doe,2
Justin,Doe,3
Jill,Doe,1
Joe,Doe,2
Justin,Doe,3
Jill,Doe,1
Joe,Doe,2
Justin,Doe,3
Jill,Doe,1
Joe,Doe,2
Justin,Doe,3
Jill,Doe,1
Joe,Doe,2
Justin,Doe,3
Jill,Doe,1
Joe,Doe,2
Justin,Doe,3
Jill,Doe,1
Joe,Doe,2
Justin,Doe,3
Jill,Doe,1
Joe,Doe,2
Justin,Doe,3
Jill,Doe,1
Joe,Doe,2
Justin,Doe,3
Jill,Doe,1
Joe,Doe,2
Justin,Doe,3
Jill,Doe,1
Joe,Doe,2
Justin,Doe,3
Jill,Doe,1
Joe,Doe,2
Justin,Doe,3
Joe,Doe,2
Justin,Doe,3
Jill,Doe,1
Joe,Doe,2
Justin,Doe,3
Jill,Doe,1
Joe,Doe,2
Justin,Doe,3
Jill,Doe,1
Joe,Doe,2
Justin,Doe,3
Jill,Doe,1
Joe,Doe,2
Justin,Doe,3
Jill,Doe,1
Joe,Doe,2
Justin,Doe,3
Jill,Doe,1
Joe,Doe,2
Justin,Doe,3
Jill,Doe,1
Joe,Doe,2
Justin,Doe,3
Jill,Doe,1
Joe,Doe,2
Justin,Doe,3
Jill,Doe,1
Joe,Doe,2
Justin,Doe,3
Jill,Doe,1
Joe,Doe,2
Justin,Doe,3
Jill,Doe,1
Joe,Doe,2
Justin,Doe,3
Jill,Doe,1
Joe,Doe,2
Justin,Doe,3
Jill,Doe,1
Joe,Doe,2
Justin,Doe,3
Jill,Doe,1
Joe,Doe,2
Justin,Doe,3
Jill,Doe,1
Joe,Doe,2
Justin,Doe,3
Jill,Doe,1
Joe,Doe,2
Justin,Doe,3
Jill,Doe,1
Joe,Doe,2
Justin,Doe,3
Jill,Doe,1
Joe,Doe,2
Justin,Doe,3
Joe,Doe,2
Justin,Doe,3
Jill,Doe,1
Joe,Doe,2
Justin,Doe,3
Jill,Doe,1
Joe,Doe,2
Justin,Doe,3
Jill,Doe,1
Joe,Doe,2
Justin,Doe,3
Jill,Doe,1
Joe,Doe,2
Justin,Doe,3
Jill,Doe,1
Joe,Doe,2
Justin,Doe,3
Jill,Doe,1
Joe,Doe,2
Justin,Doe,3
Jill,Doe,1
Joe,Doe,2
Justin,Doe,3
Jill,Doe,1
Joe,Doe,2
Justin,Doe,3
Jill,Doe,1
Joe,Doe,2
Justin,Doe,3
Jill,Doe,1
Joe,Doe,2
Justin,Doe,3
Jill,Doe,1
Joe,Doe,2
Justin,Doe,3
Jill,Doe,1
Joe,Doe,2
Justin,Doe,3
Jill,Doe,1
Joe,Doe,2
Justin,Doe,3
Jill,Doe,1
Joe,Doe,2
Justin,Doe,3
Jill,Doe,1
Joe,Doe,2
Justin,Doe,3
Jill,Doe,1
Joe,Doe,2
Justin,Doe,3
Jill,Doe,1
Joe,Doe,2
Justin,Doe,3
Jill,Doe,1
Joe,Doe,2
Justin,Doe,3
Joe,Doe,2
Justin,Doe,3
Jill,Doe,1
Joe,Doe,2
Justin,Doe,3
Jill,Doe,1
Joe,Doe,2
Justin,Doe,3
Jill,Doe,1
Joe,Doe,2
Justin,Doe,3
Jill,Doe,1
Joe,Doe,2
Justin,Doe,3
Jill,Doe,1
Joe,Doe,2
Justin,Doe,3
Jill,Doe,1
Joe,Doe,2
Justin,Doe,3
Jill,Doe,1
Joe,Doe,2
Justin,Doe,3
Jill,Doe,1
Joe,Doe,2
Justin,Doe,3
Jill,Doe,1
Joe,Doe,2
Justin,Doe,3
Jill,Doe,1
Joe,Doe,2
Justin,Doe,3
Jill,Doe,1
Joe,Doe,2
Justin,Doe,3
Jill,Doe,1
Joe,Doe,2
Justin,Doe,3
Jill,Doe,1
Joe,Doe,2
Justin,Doe,3
Jill,Doe,1
Joe,Doe,2
Justin,Doe,3
Jill,Doe,1
Joe,Doe,2
Justin,Doe,3
Jill,Doe,1
Joe,Doe,2
Justin,Doe,3
Jill,Doe,1
Joe,Doe,2
Justin,Doe,3
Jill,Doe,1
Joe,Doe,2
Justin,Doe,3
Joe,Doe,2
Justin,Doe,3
Jill,Doe,1
Joe,Doe,2
Justin,Doe,3
Jill,Doe,1
Joe,Doe,2
Justin,Doe,3
Jill,Doe,1
Joe,Doe,2
Justin,Doe,3
Jill,Doe,1
Joe,Doe,2
Justin,Doe,3
Jill,Doe,1
Joe,Doe,2
Justin,Doe,3
Jill,Doe,1
Joe,Doe,2
Justin,Doe,3
Jill,Doe,1
Joe,Doe,2
Justin,Doe,3
Jill,Doe,1
Joe,Doe,2
Justin,Doe,3
Jill,Doe,1
Joe,Doe,2
Justin,Doe,3
Jill,Doe,1
Joe,Doe,2
Justin,Doe,3
Jill,Doe,1
Joe,Doe,2
Justin,Doe,3
Jill,Doe,1
Joe,Doe,2
Justin,Doe,3
Jill,Doe,1
Joe,Doe,2
Justin,Doe,3
Jill,Doe,1
Joe,Doe,2
Justin,Doe,3
Jill,Doe,1
Joe,Doe,2
Justin,Doe,3
Jill,Doe,1
Joe,Doe,2
Justin,Doe,3
Jill,Doe,1
Joe,Doe,2
Justin,Doe,3
Jill,Doe,1
Joe,Doe,2
Justin,Doe,3
Joe,Doe,2
Justin,Doe,3
Jill,Doe,1
Joe,Doe,2
Justin,Doe,3
Jill,Doe,1
Joe,Doe,2
Justin,Doe,3
Jill,Doe,1
Joe,Doe,2
Justin,Doe,3
Jill,Doe,1
Joe,Doe,2
Justin,Doe,3
Jill,Doe,1
Joe,Doe,2
Justin,Doe,3
Jill,Doe,1
Joe,Doe,2
Justin,Doe,3
Jill,Doe,1
Joe,Doe,2
Justin,Doe,3
Jill,Doe,1
Joe,Doe,2
Justin,Doe,3
Jill,Doe,1
Joe,Doe,2
Justin,Doe,3
Jill,Doe,1
Joe,Doe,2
Justin,Doe,3
Jill,Doe,1
Joe,Doe,2
Justin,Doe,3
Jill,Doe,1
Joe,Doe,2
Justin,Doe,3
Jill,Doe,1
Joe,Doe,2
Justin,Doe,3
Jill,Doe,1
Joe,Doe,2
Justin,Doe,3
Jill,Doe,1
Joe,Doe,2
Justin,Doe,3
Jill,Doe,1
Joe,Doe,2
Justin,Doe,3
Jill,Doe,1
Joe,Doe,2
Justin,Doe,3
Jill,Doe,1
Joe,Doe,2
Justin,Doe,3
Joe,Doe,2
Justin,Doe,3
Jill,Doe,1
Joe,Doe,2
Justin,Doe,3
Jill,Doe,1
Joe,Doe,2
Justin,Doe,3
Jill,Doe,1
Joe,Doe,2
Justin,Doe,3
Jill,Doe,1
Joe,Doe,2
Justin,Doe,3
Jill,Doe,1
Joe,Doe,2
Justin,Doe,3
Jill,Doe,1
Joe,Doe,2
Justin,Doe,3
Jill,Doe,1
Joe,Doe,2
Justin,Doe,3
Jill,Doe,1
Joe,Doe,2
Justin,Doe,3
Jill,Doe,1
Joe,Doe,2
Justin,Doe,3
Jill,Doe,1
Joe,Doe,2
Justin,Doe,3
Jill,Doe,1
Joe,Doe,2
Justin,Doe,3
Jill,Doe,1
Joe,Doe,2
Justin,Doe,3
Jill,Doe,1
Joe,Doe,2
Justin,Doe,3
Jill,Doe,1
Joe,Doe,2
Justin,Doe,3
Jill,Doe,1
Joe,Doe,2
Justin,Doe,3
Jill,Doe,1
Joe,Doe,2
Justin,Doe,3
Jill,Doe,1
Joe,Doe,2
Justin,Doe,3
Jill,Doe,1
Joe,Doe,2
Justin,Doe,3
Joe,Doe,2
Justin,Doe,3
Jill,Doe,1
Joe,Doe,2
Justin,Doe,3
Jill,Doe,1
Joe,Doe,2
Justin,Doe,3
Jill,Doe,1
Joe,Doe,2
Justin,Doe,3
Jill,Doe,1
Joe,Doe,2
Justin,Doe,3
Jill,Doe,1
Joe,Doe,2
Justin,Doe,3
Jill,Doe,1
Joe,Doe,2
Justin,Doe,3
Jill,Doe,1
Joe,Doe,2
Justin,Doe,3
Jill,Doe,1
Joe,Doe,2
Justin,Doe,3
Jill,Doe,1
Joe,Doe,2
Justin,Doe,3
Jill,Doe,1
Joe,Doe,2
Justin,Doe,3
Jill,Doe,1
Joe,Doe,2
Justin,Doe,3
Jill,Doe,1
Joe,Doe,2
Justin,Doe,3
Jill,Doe,1
Joe,Doe,2
Justin,Doe,3
Jill,Doe,1
Joe,Doe,2
Justin,Doe,3
Jill,Doe,1
Joe,Doe,2
Justin,Doe,3
Jill,Doe,1
Joe,Doe,2
Justin,Doe,3
Jill,Doe,1
Joe,Doe,2
Justin,Doe,3
Jill,Doe,1
Joe,Doe,2
Justin,Doe,3
Joe,Doe,2
Justin,Doe,3
Jill,Doe,1
Joe,Doe,2
Justin,Doe,3
Jill,Doe,1
Joe,Doe,2
Justin,Doe,3
Jill,Doe,1
Joe,Doe,2
Justin,Doe,3
Jill,Doe,1
Joe,Doe,2
Justin,Doe,3
Jill,Doe,1
Joe,Doe,2
Justin,Doe,3
Jill,Doe,1
Joe,Doe,2
Justin,Doe,3
Jill,Doe,1
Joe,Doe,2
Justin,Doe,3
Jill,Doe,1
Joe,Doe,2
Justin,Doe,3
Jill,Doe,1
Joe,Doe,2
Justin,Doe,3
Jill,Doe,1
Joe,Doe,2
Justin,Doe,3
Jill,Doe,1
Joe,Doe,2
Justin,Doe,3
Jill,Doe,1
Joe,Doe,2
Justin,Doe,3
Jill,Doe,1
Joe,Doe,2
Justin,Doe,3
Jill,Doe,1
Joe,Doe,2
Justin,Doe,3
Jill,Doe,1
Joe,Doe,2
Justin,Doe,3
Jill,Doe,1
Joe,Doe,2
Justin,Doe,3
Jill,Doe,1
Joe,Doe,2
Justin,Doe,3
Jill,Doe,1
Joe,Doe,2
Justin,Doe,3
Joe,Doe,2
Justin,Doe,3
Jill,Doe,1
Joe,Doe,2
Justin,Doe,3
Jill,Doe,1
Joe,Doe,2
Justin,Doe,3
Joe,Doe,2
Justin,Doe,3
Jill,Doe,1
Joe,Doe,2
Justin,Doe,3
Jill,Doe,1
Joe,Doe,2
Justin,Doe,3
Jill,Doe,1
Joe,Doe,2
Justin,Doe,3
Jill,Doe,1
Joe,Doe,2
Justin,Doe,3
Jill,Doe,1
Joe,Doe,2
Justin,Doe,3
Jill,Doe,1
Joe,Doe,2
Justin,Doe,3
Jill,Doe,1
Joe,Doe,2
Justin,Doe,3
Jill,Doe,1
Joe,Doe,2
Justin,Doe,3
Jill,Doe,1
Joe,Doe,2
Justin,Doe,3
Jill,Doe,1
Joe,Doe,2
Justin,Doe,3
Jill,Doe,1
Joe,Doe,2
Justin,Doe,3
Jill,Doe,1
Joe,Doe,2
Justin,Doe,3
Jill,Doe,1
Joe,Doe,2
Justin,Doe,3
Jill,Doe,1
Joe,Doe,2
Justin,Doe,3
Jill,Doe,1
Joe,Doe,2
Justin,Doe,3
Joe,Doe,2
Justin,Doe,3
Jill,Doe,1
Joe,Doe,2
Justin,Doe,3
Jill,Doe,1
Joe,Doe,2
Justin,Doe,3
Jill,Doe,1
Joe,Doe,2
Justin,Doe,3
Jill,Doe,1
Joe,Doe,2
Justin,Doe,3
Jill,Doe,1
Joe,Doe,2
Justin,Doe,3
Jill,Doe,1
Joe,Doe,2
Justin,Doe,3
Jill,Doe,1
Joe,Doe,2
Justin,Doe,3
Jill,Doe,1
Joe,Doe,2
Justin,Doe,3
Jill,Doe,1
Joe,Doe,2
Justin,Doe,3
Jill,Doe,1
Joe,Doe,2
Justin,Doe,3
Jill,Doe,1
Joe,Doe,2
Justin,Doe,3
Jill,Doe,1
Joe,Doe,2
Justin,Doe,3
Jill,Doe,1
Joe,Doe,2
Justin,Doe,3
Jill,Doe,1
Joe,Doe,2
Justin,Doe,3
Jill,Doe,1
Joe,Doe,2
Justin,Doe,3
Jill,Doe,1
Joe,Doe,2
Justin,Doe,3
Jill,Doe,1
Joe,Doe,2
Justin,Doe,3
Jill,Doe,1
Joe,Doe,2
Justin,Doe,3
Joe,Doe,2
Justin,Doe,3
Jill,Doe,1
Joe,Doe,2
Justin,Doe,3
Jill,Doe,1
Joe,Doe,2
Justin,Doe,3
Jill,Doe,1
Joe,Doe,2
Justin,Doe,3
Jill,Doe,1
Joe,Doe,2
Justin,Doe,3
Jill,Doe,1
Joe,Doe,2
Justin,Doe,3
Jill,Doe,1
Joe,Doe,2
Justin,Doe,3
Jill,Doe,1
Joe,Doe,2
Justin,Doe,3
Jill,Doe,1
Joe,Doe,2
Justin,Doe,3
Jill,Doe,1
Joe,Doe,2
Justin,Doe,3
Jill,Doe,1
Joe,Doe,2
Justin,Doe,3
Jill,Doe,1
Joe,Doe,2
Justin,Doe,3
Jill,Doe,1
Joe,Doe,2
Justin,Doe,3
Jill,Doe,1
Joe,Doe,2
Justin,Doe,3
Jill,Doe,1
Joe,Doe,2
Justin,Doe,3
Jill,Doe,1
Joe,Doe,2
Justin,Doe,3
Jill,Doe,1
Joe,Doe,2
Justin,Doe,3
Jill,Doe,1
Joe,Doe,2
Justin,Doe,3
Jill,Doe,1
Joe,Doe,2
Justin,Doe,3
Joe,Doe,2
Justin,Doe,3
Jill,Doe,1
Joe,Doe,2
Justin,Doe,3
Jill,Doe,1
Joe,Doe,2
Justin,Doe,3
Jill,Doe,1
Joe,Doe,2
Justin,Doe,3
Jill,Doe,1
Joe,Doe,2
Justin,Doe,3
Jill,Doe,1
Joe,Doe,2
Justin,Doe,3
Jill,Doe,1
Joe,Doe,2
Justin,Doe,3
Jill,Doe,1
Joe,Doe,2
Justin,Doe,3
Jill,Doe,1
Joe,Doe,2
Justin,Doe,3
Jill,Doe,1
Joe,Doe,2
Justin,Doe,3
Jill,Doe,1
Joe,Doe,2
Justin,Doe,3
Jill,Doe,1
Joe,Doe,2
Justin,Doe,3
Jill,Doe,1
Joe,Doe,2
Justin,Doe,3
Jill,Doe,1
Joe,Doe,2
Justin,Doe,3
Jill,Doe,1
Joe,Doe,2
Justin,Doe,3
Jill,Doe,1
Joe,Doe,2
Justin,Doe,3
Jill,Doe,1
Joe,Doe,2
Justin,Doe,3
Jill,Doe,1
Joe,Doe,2
Justin,Doe,3
Jill,Doe,1
Joe,Doe,2
Justin,Doe,3
Joe,Doe,2
Justin,Doe,3
Jill,Doe,1
Joe,Doe,2
Justin,Doe,3
Jill,Doe,1
Joe,Doe,2
Justin,Doe,3
Jill,Doe,1
Joe,Doe,2
Justin,Doe,3
Jill,Doe,1
Joe,Doe,2
Justin,Doe,3
Jill,Doe,1
Joe,Doe,2
Justin,Doe,3
Jill,Doe,1
Joe,Doe,2
Justin,Doe,3
Jill,Doe,1
Joe,Doe,2
Justin,Doe,3
Jill,Doe,1
Joe,Doe,2
Justin,Doe,3
Jill,Doe,1
Joe,Doe,2
Justin,Doe,3
Jill,Doe,1
Joe,Doe,2
Justin,Doe,3
Jill,Doe,1
Joe,Doe,2
Justin,Doe,3
Jill,Doe,1
Joe,Doe,2
Justin,Doe,3
Jill,Doe,1
Joe,Doe,2
Justin,Doe,3
Jill,Doe,1
Joe,Doe,2
Justin,Doe,3
Jill,Doe,1
Joe,Doe,2
Justin,Doe,3
Jill,Doe,1
Joe,Doe,2
Justin,Doe,3
Jill,Doe,1
Joe,Doe,2
Justin,Doe,3
Jill,Doe,1
Joe,Doe,2
Justin,Doe,3
Joe,Doe,2
Justin,Doe,3
Jill,Doe,1
Joe,Doe,2
Justin,Doe,3
Jill,Doe,1
Joe,Doe,2
Justin,Doe,3
Jill,Doe,1
Joe,Doe,2
Justin,Doe,3
Jill,Doe,1
Joe,Doe,2
Justin,Doe,3
Jill,Doe,1
Joe,Doe,2
Justin,Doe,3
Jill,Doe,1
Joe,Doe,2
Justin,Doe,3
Jill,Doe,1
Joe,Doe,2
Justin,Doe,3
Jill,Doe,1
Joe,Doe,2
Justin,Doe,3
Jill,Doe,1
Joe,Doe,2
Justin,Doe,3
Jill,Doe,1
Joe,Doe,2
Justin,Doe,3
Jill,Doe,1
Joe,Doe,2
Justin,Doe,3
Jill,Doe,1
Joe,Doe,2
Justin,Doe,3
Jill,Doe,1
Joe,Doe,2
Justin,Doe,3
Jill,Doe,1
Joe,Doe,2
Justin,Doe,3
Jill,Doe,1
Joe,Doe,2
Justin,Doe,3
Jill,Doe,1
Joe,Doe,2
Justin,Doe,3
Jill,Doe,1
Joe,Doe,2
Justin,Doe,3
Jill,Doe,1
Joe,Doe,2
Justin,Doe,3
Joe,Doe,2
Justin,Doe,3
Jill,Doe,1
Joe,Doe,2
Justin,Doe,3
Jill,Doe,1
Joe,Doe,2
Justin,Doe,3
Jill,Doe,1
Joe,Doe,2
Justin,Doe,3
Jill,Doe,1
Joe,Doe,2
Justin,Doe,3
Jill,Doe,1
Joe,Doe,2
Justin,Doe,3
Jill,Doe,1
Joe,Doe,2
Justin,Doe,3
Jill,Doe,1
Joe,Doe,2
Justin,Doe,3
Jill,Doe,1
Joe,Doe,2
Justin,Doe,3
Jill,Doe,1
Joe,Doe,2
Justin,Doe,3
Jill,Doe,1
Joe,Doe,2
Justin,Doe,3
Jill,Doe,1
Joe,Doe,2
Justin,Doe,3
Jill,Doe,1
Joe,Doe,2
Justin,Doe,3
Jill,Doe,1
Joe,Doe,2
Justin,Doe,3
Jill,Doe,1
Joe,Doe,2
Justin,Doe,3
Jill,Doe,1
Joe,Doe,2
Justin,Doe,3
Jill,Doe,1
Joe,Doe,2
Justin,Doe,3
Jill,Doe,1
Joe,Doe,2
Justin,Doe,3
Jill,Doe,1
Joe,Doe,2
Justin,Doe,3
Joe,Doe,2
Justin,Doe,3
Jill,Doe,1
Joe,Doe,2
Justin,Doe,3
Jill,Doe,1
Joe,Doe,2
Justin,Doe,3
Jill,Doe,1
Joe,Doe,2
Justin,Doe,3
Jill,Doe,1
Joe,Doe,2
Justin,Doe,3
Jill,Doe,1
Joe,Doe,2
Justin,Doe,3
Jill,Doe,1
Joe,Doe,2
Justin,Doe,3
Jill,Doe,1
Joe,Doe,2
Justin,Doe,3
Jill,Doe,1
Joe,Doe,2
Justin,Doe,3
Jill,Doe,1
Joe,Doe,2
Justin,Doe,3
Jill,Doe,1
Joe,Doe,2
Justin,Doe,3
Jill,Doe,1
Joe,Doe,2
Justin,Doe,3
Jill,Doe,1
Joe,Doe,2
Justin,Doe,3
Jill,Doe,1
Joe,Doe,2
Justin,Doe,3
Jill,Doe,1
Joe,Doe,2
Justin,Doe,3
Jill,Doe,1
Joe,Doe,2
Justin,Doe,3
Jill,Doe,1
Joe,Doe,2
Justin,Doe,3
Jill,Doe,1
Joe,Doe,2
Justin,Doe,3
Jill,Doe,1
Joe,Doe,2
Justin,Doe,3
Joe,Doe,2
Justin,Doe,3
Jill,Doe,1
Joe,Doe,2
Justin,Doe,3
Jill,Doe,1
Joe,Doe,2
Justin,Doe,3
Jill,Doe,1
Joe,Doe,2
Justin,Doe,3
Jill,Doe,1
Joe,Doe,2
Justin,Doe,3
Jill,Doe,1
Joe,Doe,2
Justin,Doe,3
Jill,Doe,1
Joe,Doe,2
Justin,Doe,3
Jill,Doe,1
Joe,Doe,2
Justin,Doe,3
Jill,Doe,1
Joe,Doe,2
Justin,Doe,3
Jill,Doe,1
Joe,Doe,2
Justin,Doe,3
Jill,Doe,1
Joe,Doe,2
Justin,Doe,3
Jill,Doe,1
Joe,Doe,2
Justin,Doe,3
Jill,Doe,1
Joe,Doe,2
Justin,Doe,3
Jill,Doe,1
Joe,Doe,2
Justin,Doe,3
Jill,Doe,1
Joe,Doe,2
Justin,Doe,3
Jill,Doe,1
Joe,Doe,2
Justin,Doe,3
Jill,Doe,1
Joe,Doe,2
Justin,Doe,3
Jill,Doe,1
Joe,Doe,2
Justin,Doe,3
Jill,Doe,1
Joe,Doe,2
Justin,Doe,3
Joe,Doe,2
Justin,Doe,3
Jill,Doe,1
Joe,Doe,2
Justin,Doe,3
Jill,Doe,1
Joe,Doe,2
Justin,Doe,3
Jill,Doe,1
Joe,Doe,2
Justin,Doe,3
Jill,Doe,1
Joe,Doe,2
Justin,Doe,3
Jill,Doe,1
Joe,Doe,2
Justin,Doe,3
Jill,Doe,1
Joe,Doe,2
Justin,Doe,3
Jill,Doe,1
Joe,Doe,2
Justin,Doe,3
Jill,Doe,1
Joe,Doe,2
Justin,Doe,3
Jill,Doe,1
Joe,Doe,2
Justin,Doe,3
Jill,Doe,1
Joe,Doe,2
Justin,Doe,3
Jill,Doe,1
Joe,Doe,2
Justin,Doe,3
Jill,Doe,1
Joe,Doe,2
Justin,Doe,3
Jill,Doe,1
Joe,Doe,2
Justin,Doe,3
Jill,Doe,1
Joe,Doe,2
Justin,Doe,3
Jill,Doe,1
Joe,Doe,2
Justin,Doe,3
Jill,Doe,1
Joe,Doe,2
Justin,Doe,3
Jill,Doe,1
Joe,Doe,2
Justin,Doe,3
Jill,Doe,1
Joe,Doe,2
Justin,Doe,3
Joe,Doe,2
Justin,Doe,3
Jill,Doe,1
Joe,Doe,2
Justin,Doe,3
Jill,Doe,1
Joe,Doe,2
Justin,Doe,3
Jill,Doe,1
Joe,Doe,2
Justin,Doe,3
Jill,Doe,1
Joe,Doe,2
Justin,Doe,3
Jill,Doe,1
Joe,Doe,2
Justin,Doe,3
Jill,Doe,1
Joe,Doe,2
Justin,Doe,3
Jill,Doe,1
Joe,Doe,2
Justin,Doe,3
Jill,Doe,1
Joe,Doe,2
Justin,Doe,3
Jill,Doe,1
Joe,Doe,2
Justin,Doe,3
Jill,Doe,1
Joe,Doe,2
Justin,Doe,3
Jill,Doe,1
Joe,Doe,2
Justin,Doe,3
Jill,Doe,1
Joe,Doe,2
Justin,Doe,3
Jill,Doe,1
Joe,Doe,2
Justin,Doe,3
Jill,Doe,1
Joe,Doe,2
Justin,Doe,3
Jill,Doe,1
Joe,Doe,2
Justin,Doe,3
Jill,Doe,1
Joe,Doe,2
Justin,Doe,3
Jill,Doe,1
Joe,Doe,2
Justin,Doe,3
Jill,Doe,1
Joe,Doe,2
Justin,Doe,3
Joe,Doe,2
Justin,Doe,3
Jill,Doe,1
Joe,Doe,2
Justin,Doe,3
Jill,Doe,1
Joe,Doe,2
Justin,Doe,3
Jill,Doe,1
Joe,Doe,2
Justin,Doe,3
Jill,Doe,1
Joe,Doe,2
Justin,Doe,3
Jill,Doe,1
Joe,Doe,2
Justin,Doe,3
Jill,Doe,1
Joe,Doe,2
Justin,Doe,3
Jill,Doe,1
Joe,Doe,2
Justin,Doe,3
Jill,Doe,1
Joe,Doe,2
Justin,Doe,3
Jill,Doe,1
Joe,Doe,2
Justin,Doe,3
Jill,Doe,1
Joe,Doe,2
Justin,Doe,3
Jill,Doe,1
Joe,Doe,2
Justin,Doe,3
Jill,Doe,1
Joe,Doe,2
Justin,Doe,3
Jill,Doe,1
Joe,Doe,2
Justin,Doe,3
Jill,Doe,1
Joe,Doe,2
Justin,Doe,3
Jill,Doe,1
Joe,Doe,2
Justin,Doe,3
Jill,Doe,1
Joe,Doe,2
Justin,Doe,3
Jill,Doe,1
Joe,Doe,2
Justin,Doe,3
Jill,Doe,1
Joe,Doe,2
Justin,Doe,3
Joe,Doe,2
Justin,Doe,3
Jill,Doe,1
Joe,Doe,2
Justin,Doe,3
Jill,Doe,1
Joe,Doe,2
Justin,Doe,3
Jill,Doe,1
Joe,Doe,2
Justin,Doe,3
Jill,Doe,1
Joe,Doe,2
Justin,Doe,3
Jill,Doe,1
Joe,Doe,2
Justin,Doe,3
Jill,Doe,1
Joe,Doe,2
Justin,Doe,3
Jill,Doe,1
Joe,Doe,2
Justin,Doe,3
Jill,Doe,1
Joe,Doe,2
Justin,Doe,3
Jill,Doe,1
Joe,Doe,2
Justin,Doe,3
Jill,Doe,1
Joe,Doe,2
Justin,Doe,3
Jill,Doe,1
Joe,Doe,2
Justin,Doe,3
Jill,Doe,1
Joe,Doe,2
Justin,Doe,3
Jill,Doe,1
Joe,Doe,2
Justin,Doe,3
Jill,Doe,1
Joe,Doe,2
Justin,Doe,3
Jill,Doe,1
Joe,Doe,2
Justin,Doe,3
Jill,Doe,1
Joe,Doe,2
Justin,Doe,3
Jill,Doe,1
Joe,Doe,2
Justin,Doe,3
Jill,Doe,1
Joe,Doe,2
Justin,Doe,3
Joe,Doe,2
Justin,Doe,3
Jill,Doe,1
Joe,Doe,2
Justin,Doe,3
Jill,Doe,1
Joe,Doe,2
Justin,Doe,3
Jill,Doe,1
Joe,Doe,2
Justin,Doe,3
Jill,Doe,1
Joe,Doe,2
Justin,Doe,3
Jill,Doe,1
Joe,Doe,2
Justin,Doe,3
Jill,Doe,1
Joe,Doe,2
Justin,Doe,3
Jill,Doe,1
Joe,Doe,2
Justin,Doe,3
Jill,Doe,1
Joe,Doe,2
Justin,Doe,3
Jill,Doe,1
Joe,Doe,2
Justin,Doe,3
Jill,Doe,1
Joe,Doe,2
Justin,Doe,3
Jill,Doe,1
Joe,Doe,2
Justin,Doe,3
Jill,Doe,1
Joe,Doe,2
Justin,Doe,3
Jill,Doe,1
Joe,Doe,2
Justin,Doe,3
Jill,Doe,1
Joe,Doe,2
Justin,Doe,3
Jill,Doe,1
Joe,Doe,2
Justin,Doe,3
Jill,Doe,1
Joe,Doe,2
Justin,Doe,3
Jill,Doe,1
Joe,Doe,2
Justin,Doe,3
Jill,Doe,1
Joe,Doe,2
Justin,Doe,3
Joe,Doe,2
Justin,Doe,3
Jill,Doe,1
Joe,Doe,2
Justin,Doe,3
Jill,Doe,1
Joe,Doe,2
Justin,Doe,3
Jill,Doe,1
Joe,Doe,2
Justin,Doe,3
Jill,Doe,1
Joe,Doe,2
Justin,Doe,3
Jill,Doe,1
Joe,Doe,2
Justin,Doe,3
Jill,Doe,1
Joe,Doe,2
Justin,Doe,3
Jill,Doe,1
Joe,Doe,2
Justin,Doe,3
Jill,Doe,1
Joe,Doe,2
Justin,Doe,3
Jill,Doe,1
Joe,Doe,2
Justin,Doe,3
Jill,Doe,1
Joe,Doe,2
Justin,Doe,3
Jill,Doe,1
Joe,Doe,2
Justin,Doe,3
Jill,Doe,1
Joe,Doe,2
Justin,Doe,3
Jill,Doe,1
Joe,Doe,2
Justin,Doe,3
Jill,Doe,1
Joe,Doe,2
Justin,Doe,3
Jill,Doe,1
Joe,Doe,2
Justin,Doe,3
Jill,Doe,1
Joe,Doe,2
Justin,Doe,3
Jill,Doe,1
Joe,Doe,2
Justin,Doe,3
Jill,Doe,1
Joe,Doe,2
Justin,Doe,3
Joe,Doe,2
Justin,Doe,3
Jill,Doe,1
Joe,Doe,2
Justin,Doe,3
Jill,Doe,1
Joe,Doe,2
Justin,Doe,3
Jill,Doe,1
Joe,Doe,2
Justin,Doe,3
Jill,Doe,1
Joe,Doe,2
Justin,Doe,3
Jill,Doe,1
Joe,Doe,2
Justin,Doe,3
Jill,Doe,1
Joe,Doe,2
Justin,Doe,3
Jill,Doe,1
Joe,Doe,2
Justin,Doe,3
Jill,Doe,1
Joe,Doe,2
Justin,Doe,3
Jill,Doe,1
Joe,Doe,2
Justin,Doe,3
Jill,Doe,1
Joe,Doe,2
Justin,Doe,3
Jill,Doe,1
Joe,Doe,2
Justin,Doe,3
Jill,Doe,1
Joe,Doe,2
Justin,Doe,3
Jill,Doe,1
Joe,Doe,2
Justin,Doe,3
Jill,Doe,1
Joe,Doe,2
Justin,Doe,3
Jill,Doe,1
Joe,Doe,2
Justin,Doe,3
Jill,Doe,1
Joe,Doe,2
Justin,Doe,3
Jill,Doe,1
Joe,Doe,2
Justin,Doe,3
Jill,Doe,1
Joe,Doe,2
Justin,Doe,3
Joe,Doe,2
Justin,Doe,3
Jill,Doe,1
Joe,Doe,2
Justin,Doe,3
Jill,Doe,1
Joe,Doe,2
Justin,Doe,3
Jill,Doe,1
Joe,Doe,2
Justin,Doe,3
Jill,Doe,1
Joe,Doe,2
Justin,Doe,3
Jill,Doe,1
Joe,Doe,2
Justin,Doe,3
Jill,Doe,1
Joe,Doe,2
Justin,Doe,3
Jill,Doe,1
Joe,Doe,2
Justin,Doe,3
Jill,Doe,1
Joe,Doe,2
Justin,Doe,3
Jill,Doe,1
Joe,Doe,2
Justin,Doe,3
Jill,Doe,1
Joe,Doe,2
Justin,Doe,3
Jill,Doe,1
Joe,Doe,2
Justin,Doe,3
Jill,Doe,1
Joe,Doe,2
Justin,Doe,3
Jill,Doe,1
Joe,Doe,2
Justin,Doe,3
Jill,Doe,1
Joe,Doe,2
Justin,Doe,3
Jill,Doe,1
Joe,Doe,2
Justin,Doe,3
Jill,Doe,1
Joe,Doe,2
Justin,Doe,3
Jill,Doe,1
Joe,Doe,2
Justin,Doe,3
Jill,Doe,1
Joe,Doe,2
Justin,Doe,3
Joe,Doe,2
Justin,Doe,3
Jill,Doe,1
Joe,Doe,2
Justin,Doe,3
Jill,Doe,1
Joe,Doe,2
Justin,Doe,3
Jill,Doe,1
Joe,Doe,2
Justin,Doe,3
Jill,Doe,1
Joe,Doe,2
Justin,Doe,3
Jill,Doe,1
Joe,Doe,2
Justin,Doe,3
Jill,Doe,1
Joe,Doe,2
Justin,Doe,3
Jill,Doe,1
Joe,Doe,2
Justin,Doe,3
Jill,Doe,1
Joe,Doe,2
Justin,Doe,3
Jill,Doe,1
Joe,Doe,2
Justin,Doe,3
Jill,Doe,1
Joe,Doe,2
Justin,Doe,3
Jill,Doe,1
Joe,Doe,2
Justin,Doe,3
Jill,Doe,1
Joe,Doe,2
Justin,Doe,3
Jill,Doe,1
Joe,Doe,2
Justin,Doe,3
Jill,Doe,1
Joe,Doe,2
Justin,Doe,3
Jill,Doe,1
Joe,Doe,2
Justin,Doe,3
Jill,Doe,1
Joe,Doe,2
Justin,Doe,3
Jill,Doe,1
Joe,Doe,2
Justin,Doe,3
Jill,Doe,1
Joe,Doe,2
Justin,Doe,3
Joe,Doe,2
Justin,Doe,3
Jill,Doe,1
Joe,Doe,2
Justin,Doe,3
Jill,Doe,1
Joe,Doe,2
Justin,Doe,3
Jill,Doe,1
Joe,Doe,2
Justin,Doe,3
Jill,Doe,1
Joe,Doe,2
Justin,Doe,3
Jill,Doe,1
Joe,Doe,2
Justin,Doe,3
Jill,Doe,1
Joe,Doe,2
Justin,Doe,3
Jill,Doe,1
Joe,Doe,2
Justin,Doe,3
Jill,Doe,1
Joe,Doe,2
Justin,Doe,3
Jill,Doe,1
Joe,Doe,2
Justin,Doe,3
Jill,Doe,1
Joe,Doe,2
Justin,Doe,3
Jill,Doe,1
Joe,Doe,2
Justin,Doe,3
Jill,Doe,1
Joe,Doe,2
Justin,Doe,3
Jill,Doe,1
Joe,Doe,2
Justin,Doe,3
Jill,Doe,1
Joe,Doe,2
Justin,Doe,3
Jill,Doe,1
Joe,Doe,2
Justin,Doe,3
Jill,Doe,1
Joe,Doe,2
Justin,Doe,3
Jill,Doe,1
Joe,Doe,2
Justin,Doe,3
Jill,Doe,1
Joe,Doe,2
Justin,Doe,3
Joe,Doe,2
Justin,Doe,3
Jill,Doe,1
Joe,Doe,2
Justin,Doe,3
Jill,Doe,1
Joe,Doe,2
Justin,Doe,3
Jill,Doe,1
Joe,Doe,2
Justin,Doe,3
Jill,Doe,1
Joe,Doe,2
Justin,Doe,3
Jill,Doe,1
Joe,Doe,2
Justin,Doe,3
Jill,Doe,1
Joe,Doe,2
Justin,Doe,3
Jill,Doe,1
Joe,Doe,2
Justin,Doe,3
Jill,Doe,1
Joe,Doe,2
Justin,Doe,3
Jill,Doe,1
Joe,Doe,2
Justin,Doe,3
Jill,Doe,1
Joe,Doe,2
Justin,Doe,3
Jill,Doe,1
Joe,Doe,2
Justin,Doe,3
Jill,Doe,1
Joe,Doe,2
Justin,Doe,3
Jill,Doe,1
Joe,Doe,2
Justin,Doe,3
Jill,Doe,1
Joe,Doe,2
Justin,Doe,3
Jill,Doe,1
Joe,Doe,2
Justin,Doe,3
Jill,Doe,1
Joe,Doe,2
Justin,Doe,3
Jill,Doe,1
Joe,Doe,2
Justin,Doe,3
Jill,Doe,1
Joe,Doe,2
Justin,Doe,3
Joe,Doe,2
Justin,Doe,3
Jill,Doe,1
Joe,Doe,2
Justin,Doe,3
Jill,Doe,1
Joe,Doe,2
Justin,Doe,3
Jill,Doe,1
Joe,Doe,2
Justin,Doe,3
Jill,Doe,1
Joe,Doe,2
Justin,Doe,3
Jill,Doe,1
Joe,Doe,2
Justin,Doe,3
Jill,Doe,1
Joe,Doe,2
Justin,Doe,3
Jill,Doe,1
Joe,Doe,2
Justin,Doe,3
Jill,Doe,1
Joe,Doe,2
Justin,Doe,3
Jill,Doe,1
Joe,Doe,2
Justin,Doe,3
Jill,Doe,1
Joe,Doe,2
Justin,Doe,3
Jill,Doe,1
Joe,Doe,2
Justin,Doe,3
Jill,Doe,1
Joe,Doe,2
Justin,Doe,3
Jill,Doe,1
Joe,Doe,2
Justin,Doe,3
Jill,Doe,1
Joe,Doe,2
Justin,Doe,3
Jill,Doe,1
Joe,Doe,2
Justin,Doe,3
Jill,Doe,1
Joe,Doe,2
Justin,Doe,3
Jill,Doe,1
Joe,Doe,2
Justin,Doe,3
Jill,Doe,1
Joe,Doe,2
Justin,Doe,3
Joe,Doe,2
Justin,Doe,3
Jill,Doe,1
Joe,Doe,2
Justin,Doe,3
Jill,Doe,1
Joe,Doe,2
Justin,Doe,3
Jill,Doe,1
Joe,Doe,2
Justin,Doe,3
Jill,Doe,1
Joe,Doe,2
Justin,Doe,3
Jill,Doe,1
Joe,Doe,2
Justin,Doe,3
Jill,Doe,1
Joe,Doe,2
Justin,Doe,3
Jill,Doe,1
Joe,Doe,2
Justin,Doe,3
Jill,Doe,1
Joe,Doe,2
Justin,Doe,3
Jill,Doe,1
Joe,Doe,2
Justin,Doe,3
Jill,Doe,1
Joe,Doe,2
Justin,Doe,3
Jill,Doe,1
Joe,Doe,2
Justin,Doe,3
Jill,Doe,1
Joe,Doe,2
Justin,Doe,3
Jill,Doe,1
Joe,Doe,2
Justin,Doe,3
Jill,Doe,1
Joe,Doe,2
Justin,Doe,3
Jill,Doe,1
Joe,Doe,2
Justin,Doe,3
Jill,Doe,1
Joe,Doe,2
Justin,Doe,3
Jill,Doe,1
Joe,Doe,2
Justin,Doe,3
Jill,Doe,1
Joe,Doe,2
Justin,Doe,3
Joe,Doe,2
Justin,Doe,3
Jill,Doe,1
Joe,Doe,2
Justin,Doe,3
Jill,Doe,1
Joe,Doe,2
Justin,Doe,3
Jill,Doe,1
Joe,Doe,2
Justin,Doe,3
Jill,Doe,1
Joe,Doe,2
Justin,Doe,3
Jill,Doe,1
Joe,Doe,2
Justin,Doe,3
Jill,Doe,1
Joe,Doe,2
Justin,Doe,3
Jill,Doe,1
Joe,Doe,2
Justin,Doe,3
Jill,Doe,1
Joe,Doe,2
Justin,Doe,3
Jill,Doe,1
Joe,Doe,2
Justin,Doe,3
Jill,Doe,1
Joe,Doe,2
Justin,Doe,3
Jill,Doe,1
Joe,Doe,2
Justin,Doe,3
Jill,Doe,1
Joe,Doe,2
Justin,Doe,3
Jill,Doe,1
Joe,Doe,2
Justin,Doe,3
Jill,Doe,1
Joe,Doe,2
Justin,Doe,3
Jill,Doe,1
Joe,Doe,2
Justin,Doe,3
Jill,Doe,1
Joe,Doe,2
Justin,Doe,3
Jill,Doe,1
Joe,Doe,2
Justin,Doe,3
Jill,Doe,1
Joe,Doe,2
Justin,Doe,3
Joe,Doe,2
Justin,Doe,3
Jill,Doe,1
Joe,Doe,2
Justin,Doe,3
Jill,Doe,1
Joe,Doe,2
Justin,Doe,3
Jill,Doe,1
Joe,Doe,2
Justin,Doe,3
Jill,Doe,1
Joe,Doe,2
Justin,Doe,3
Jill,Doe,1
Joe,Doe,2
Justin,Doe,3
Jill,Doe,1
Joe,Doe,2
Justin,Doe,3
Jill,Doe,1
Joe,Doe,2
Justin,Doe,3
Jill,Doe,1
Joe,Doe,2
Justin,Doe,3
Jill,Doe,1
Joe,Doe,2
Justin,Doe,3
Jill,Doe,1
Joe,Doe,2
Justin,Doe,3
Jill,Doe,1
Joe,Doe,2
Justin,Doe,3
Jill,Doe,1
Joe,Doe,2
Justin,Doe,3
Jill,Doe,1
Joe,Doe,2
Justin,Doe,3
Jill,Doe,1
Joe,Doe,2
Justin,Doe,3
Jill,Doe,1
Joe,Doe,2
Justin,Doe,3
Jill,Doe,1
Joe,Doe,2
Justin,Doe,3
Jill,Doe,1
Joe,Doe,2
Justin,Doe,3
Jill,Doe,1
Joe,Doe,2
Justin,Doe,3
Joe,Doe,2
Justin,Doe,3
Jill,Doe,1
Joe,Doe,2
Justin,Doe,3
Jill,Doe,1
Joe,Doe,2
Justin,Doe,3
Jill,Doe,1
Joe,Doe,2
Justin,Doe,3
Jill,Doe,1
Joe,Doe,2
Justin,Doe,3
Jill,Doe,1
Joe,Doe,2
Justin,Doe,3
Jill,Doe,1
Joe,Doe,2
Justin,Doe,3
Jill,Doe,1
Joe,Doe,2
Justin,Doe,3
Jill,Doe,1
Joe,Doe,2
Justin,Doe,3
Jill,Doe,1
Joe,Doe,2
Justin,Doe,3
Jill,Doe,1
Joe,Doe,2
Justin,Doe,3
Jill,Doe,1
Joe,Doe,2
Justin,Doe,3
Jill,Doe,1
Joe,Doe,2
Justin,Doe,3
Jill,Doe,1
Joe,Doe,2
Justin,Doe,3
Jill,Doe,1
Joe,Doe,2
Justin,Doe,3
Jill,Doe,1
Joe,Doe,2
Justin,Doe,3
Jill,Doe,1
Joe,Doe,2
Justin,Doe,3
Jill,Doe,1
Joe,Doe,2
Justin,Doe,3
Jill,Doe,1
Joe,Doe,2
Justin,Doe,3
Joe,Doe,2
Justin,Doe,3
Jill,Doe,1
Joe,Doe,2
Justin,Doe,3
Jill,Doe,1
Joe,Doe,2
Justin,Doe,3
Jill,Doe,1
Joe,Doe,2
Justin,Doe,3
Jill,Doe,1
Joe,Doe,2
Justin,Doe,3
Jill,Doe,1
Joe,Doe,2
Justin,Doe,3
Jill,Doe,1
Joe,Doe,2
Justin,Doe,3
Jill,Doe,1
Joe,Doe,2
Justin,Doe,3
Jill,Doe,1
Joe,Doe,2
Justin,Doe,3
Jill,Doe,1
Joe,Doe,2
Justin,Doe,3
Jill,Doe,1
Joe,Doe,2
Justin,Doe,3
Jill,Doe,1
Joe,Doe,2
Justin,Doe,3
Jill,Doe,1
Joe,Doe,2
Justin,Doe,3
Jill,Doe,1
Joe,Doe,2
Justin,Doe,3
Jill,Doe,1
Joe,Doe,2
Justin,Doe,3
Jill,Doe,1
Joe,Doe,2
Justin,Doe,3
Jill,Doe,1
Joe,Doe,2
Justin,Doe,3
Jill,Doe,1
Joe,Doe,2
Justin,Doe,3
Jill,Doe,1
Joe,Doe,2
Justin,Doe,3
Joe,Doe,2
Justin,Doe,3
Jill,Doe,1
Joe,Doe,2
Justin,Doe,3
Jill,Doe,1
Joe,Doe,2
Justin,Doe,3
Jill,Doe,1
Joe,Doe,2
Justin,Doe,3
Jill,Doe,1
Joe,Doe,2
Justin,Doe,3
Jill,Doe,1
Joe,Doe,2
Justin,Doe,3
Jill,Doe,1
Joe,Doe,2
Justin,Doe,3
Jill,Doe,1
Joe,Doe,2
Justin,Doe,3
Jill,Doe,1
Joe,Doe,2
Justin,Doe,3
Jill,Doe,1
Joe,Doe,2
Justin,Doe,3
Jill,Doe,1
Joe,Doe,2
Justin,Doe,3
Jill,Doe,1
Joe,Doe,2
Justin,Doe,3
Jill,Doe,1
Joe,Doe,2
Justin,Doe,3
Jill,Doe,1
Joe,Doe,2
Justin,Doe,3
Jill,Doe,1
Joe,Doe,2
Justin,Doe,3
Jill,Doe,1
Joe,Doe,2
Justin,Doe,3
Jill,Doe,1
Joe,Doe,2
Justin,Doe,3
Jill,Doe,1
Joe,Doe,2
Justin,Doe,3
Jill,Doe,1
Joe,Doe,2
Justin,Doe,3
Joe,Doe,2
Justin,Doe,3
Jill,Doe,1
Joe,Doe,2
Justin,Doe,3
Jill,Doe,1
Joe,Doe,2
Justin,Doe,3
Jill,Doe,1
Joe,Doe,2
Justin,Doe,3
Jill,Doe,1
Joe,Doe,2
Justin,Doe,3
Jill,Doe,1
Joe,Doe,2
Justin,Doe,3
Jill,Doe,1
Joe,Doe,2
Justin,Doe,3
Jill,Doe,1
Joe,Doe,2
Justin,Doe,3
Jill,Doe,1
Joe,Doe,2
Justin,Doe,3
Jill,Doe,1
Joe,Doe,2
Justin,Doe,3
Jill,Doe,1
Joe,Doe,2
Justin,Doe,3
Jill,Doe,1
Joe,Doe,2
Justin,Doe,3
Jill,Doe,1
Joe,Doe,2
Justin,Doe,3
Jill,Doe,1
Joe,Doe,2
Justin,Doe,3
Jill,Doe,1
Joe,Doe,2
Justin,Doe,3
Jill,Doe,1
Joe,Doe,2
Justin,Doe,3
Jill,Doe,1
Joe,Doe,2
Justin,Doe,3
Jill,Doe,1
Joe,Doe,2
Justin,Doe,3
Jill,Doe,1
Joe,Doe,2
Justin,Doe,3
Joe,Doe,2
Justin,Doe,3
Jill,Doe,1
Joe,Doe,2
Justin,Doe,3
Jill,Doe,1
Joe,Doe,2
Justin,Doe,3
Joe,Doe,2
Justin,Doe,3
Jill,Doe,1
Joe,Doe,2
Justin,Doe,3
Jill,Doe,1
Joe,Doe,2
Justin,Doe,3
Jill,Doe,1
Joe,Doe,2
Justin,Doe,3
Jill,Doe,1
Joe,Doe,2
Justin,Doe,3
Jill,Doe,1
Joe,Doe,2
Justin,Doe,3
Jill,Doe,1
Joe,Doe,2
Justin,Doe,3
Jill,Doe,1
Joe,Doe,2
Justin,Doe,3
Jill,Doe,1
Joe,Doe,2
Justin,Doe,3
Jill,Doe,1
Joe,Doe,2
Justin,Doe,3
Jill,Doe,1
Joe,Doe,2
Justin,Doe,3
Jill,Doe,1
Joe,Doe,2
Justin,Doe,3
Jill,Doe,1
Joe,Doe,2
Justin,Doe,3
Jill,Doe,1
Joe,Doe,2
Justin,Doe,3
Jill,Doe,1
Joe,Doe,2
Justin,Doe,3
Jill,Doe,1
Joe,Doe,2
Justin,Doe,3
Joe,Doe,2
Justin,Doe,3
Jill,Doe,1
Joe,Doe,2
Justin,Doe,3
Jill,Doe,1
Joe,Doe,2
Justin,Doe,3
Jill,Doe,1
Joe,Doe,2
Justin,Doe,3
Jill,Doe,1
Joe,Doe,2
Justin,Doe,3
Jill,Doe,1
Joe,Doe,2
Justin,Doe,3
Jill,Doe,1
Joe,Doe,2
Justin,Doe,3
Jill,Doe,1
Joe,Doe,2
Justin,Doe,3
Jill,Doe,1
Joe,Doe,2
Justin,Doe,3
Jill,Doe,1
Joe,Doe,2
Justin,Doe,3
Jill,Doe,1
Joe,Doe,2
Justin,Doe,3
Jill,Doe,1
Joe,Doe,2
Justin,Doe,3
Jill,Doe,1
Joe,Doe,2
Justin,Doe,3
Jill,Doe,1
Joe,Doe,2
Justin,Doe,3
Jill,Doe,1
Joe,Doe,2
Justin,Doe,3
Jill,Doe,1
Joe,Doe,2
Justin,Doe,3
Jill,Doe,1
Joe,Doe,2
Justin,Doe,3
Jill,Doe,1
Joe,Doe,2
Justin,Doe,3
Jill,Doe,1
Joe,Doe,2
Justin,Doe,3
Joe,Doe,2
Justin,Doe,3
Jill,Doe,1
Joe,Doe,2
Justin,Doe,3
Jill,Doe,1
Joe,Doe,2
Justin,Doe,3
Jill,Doe,1
Joe,Doe,2
Justin,Doe,3
Jill,Doe,1
Joe,Doe,2
Justin,Doe,3
Jill,Doe,1
Joe,Doe,2
Justin,Doe,3
Jill,Doe,1
Joe,Doe,2
Justin,Doe,3
Jill,Doe,1
Joe,Doe,2
Justin,Doe,3
Jill,Doe,1
Joe,Doe,2
Justin,Doe,3
Jill,Doe,1
Joe,Doe,2
Justin,Doe,3
Jill,Doe,1
Joe,Doe,2
Justin,Doe,3
Jill,Doe,1
Joe,Doe,2
Justin,Doe,3
Jill,Doe,1
Joe,Doe,2
Justin,Doe,3
Jill,Doe,1
Joe,Doe,2
Justin,Doe,3
Jill,Doe,1
Joe,Doe,2
Justin,Doe,3
Jill,Doe,1
Joe,Doe,2
Justin,Doe,3
Jill,Doe,1
Joe,Doe,2
Justin,Doe,3
Jill,Doe,1
Joe,Doe,2
Justin,Doe,3
Jill,Doe,1
Joe,Doe,2
Justin,Doe,3
Joe,Doe,2
Justin,Doe,3
Jill,Doe,1
Joe,Doe,2
Justin,Doe,3
Jill,Doe,1
Joe,Doe,2
Justin,Doe,3
Jill,Doe,1
Joe,Doe,2
Justin,Doe,3
Jill,Doe,1
Joe,Doe,2
Justin,Doe,3
Jill,Doe,1
Joe,Doe,2
Justin,Doe,3
Jill,Doe,1
Joe,Doe,2
Justin,Doe,3
Jill,Doe,1
Joe,Doe,2
Justin,Doe,3
Jill,Doe,1
Joe,Doe,2
Justin,Doe,3
Jill,Doe,1
Joe,Doe,2
Justin,Doe,3
Jill,Doe,1
Joe,Doe,2
Justin,Doe,3
Jill,Doe,1
Joe,Doe,2
Justin,Doe,3
Jill,Doe,1
Joe,Doe,2
Justin,Doe,3
Jill,Doe,1
Joe,Doe,2
Justin,Doe,3
Jill,Doe,1
Joe,Doe,2
Justin,Doe,3
Jill,Doe,1
Joe,Doe,2
Justin,Doe,3
Jill,Doe,1
Joe,Doe,2
Justin,Doe,3
Jill,Doe,1
Joe,Doe,2
Justin,Doe,3
Jill,Doe,1
Joe,Doe,2
Justin,Doe,3
Joe,Doe,2
Justin,Doe,3
Jill,Doe,1
Joe,Doe,2
Justin,Doe,3
Jill,Doe,1
Joe,Doe,2
Justin,Doe,3
Jill,Doe,1
Joe,Doe,2
Justin,Doe,3
Jill,Doe,1
Joe,Doe,2
Justin,Doe,3
Jill,Doe,1
Joe,Doe,2
Justin,Doe,3
Jill,Doe,1
Joe,Doe,2
Justin,Doe,3
Jill,Doe,1
Joe,Doe,2
Justin,Doe,3
Jill,Doe,1
Joe,Doe,2
Justin,Doe,3
Jill,Doe,1
Joe,Doe,2
Justin,Doe,3
Jill,Doe,1
Joe,Doe,2
Justin,Doe,3
Jill,Doe,1
Joe,Doe,2
Justin,Doe,3
Jill,Doe,1
Joe,Doe,2
Justin,Doe,3
Jill,Doe,1
Joe,Doe,2
Justin,Doe,3
Jill,Doe,1
Joe,Doe,2
Justin,Doe,3
Jill,Doe,1
Joe,Doe,2
Justin,Doe,3
Jill,Doe,1
Joe,Doe,2
Justin,Doe,3
Jill,Doe,1
Joe,Doe,2
Justin,Doe,3
Jill,Doe,1
Joe,Doe,2
Justin,Doe,3
Joe,Doe,2
Justin,Doe,3
Jill,Doe,1
Joe,Doe,2
Justin,Doe,3
Jill,Doe,1
Joe,Doe,2
Justin,Doe,3
Jill,Doe,1
Joe,Doe,2
Justin,Doe,3
Jill,Doe,1
Joe,Doe,2
Justin,Doe,3
Jill,Doe,1
Joe,Doe,2
Justin,Doe,3
Jill,Doe,1
Joe,Doe,2
Justin,Doe,3
Jill,Doe,1
Joe,Doe,2
Justin,Doe,3
Jill,Doe,1
Joe,Doe,2
Justin,Doe,3
Jill,Doe,1
Joe,Doe,2
Justin,Doe,3
Jill,Doe,1
Joe,Doe,2
Justin,Doe,3
Jill,Doe,1
Joe,Doe,2
Justin,Doe,3
Jill,Doe,1
Joe,Doe,2
Justin,Doe,3
Jill,Doe,1
Joe,Doe,2
Justin,Doe,3
Jill,Doe,1
Joe,Doe,2
Justin,Doe,3
Jill,Doe,1
Joe,Doe,2
Justin,Doe,3
Jill,Doe,1
Joe,Doe,2
Justin,Doe,3
Jill,Doe,1
Joe,Doe,2
Justin,Doe,3
Jill,Doe,1
Joe,Doe,2
Justin,Doe,3
Joe,Doe,2
Justin,Doe,3
Jill,Doe,1
Joe,Doe,2
Justin,Doe,3
Jill,Doe,1
Joe,Doe,2
Justin,Doe,3
Jill,Doe,1
Joe,Doe,2
Justin,Doe,3
Jill,Doe,1
Joe,Doe,2
Justin,Doe,3
Jill,Doe,1
Joe,Doe,2
Justin,Doe,3
Jill,Doe,1
Joe,Doe,2
Justin,Doe,3
Jill,Doe,1
Joe,Doe,2
Justin,Doe,3
Jill,Doe,1
Joe,Doe,2
Justin,Doe,3
Jill,Doe,1
Joe,Doe,2
Justin,Doe,3
Jill,Doe,1
Joe,Doe,2
Justin,Doe,3
Jill,Doe,1
Joe,Doe,2
Justin,Doe,3
Jill,Doe,1
Joe,Doe,2
Justin,Doe,3
Jill,Doe,1
Joe,Doe,2
Justin,Doe,3
Jill,Doe,1
Joe,Doe,2
Justin,Doe,3
Jill,Doe,1
Joe,Doe,2
Justin,Doe,3
Jill,Doe,1
Joe,Doe,2
Justin,Doe,3
Jill,Doe,1
Joe,Doe,2
Justin,Doe,3
Jill,Doe,1
Joe,Doe,2
Justin,Doe,3
Joe,Doe,2
Justin,Doe,3
Jill,Doe,1
Joe,Doe,2
Justin,Doe,3
Jill,Doe,1
Joe,Doe,2
Justin,Doe,3
Jill,Doe,1
Joe,Doe,2
Justin,Doe,3
Jill,Doe,1
Joe,Doe,2
Justin,Doe,3
Jill,Doe,1
Joe,Doe,2
Justin,Doe,3
Jill,Doe,1
Joe,Doe,2
Justin,Doe,3
Jill,Doe,1
Joe,Doe,2
Justin,Doe,3
Jill,Doe,1
Joe,Doe,2
Justin,Doe,3
Jill,Doe,1
Joe,Doe,2
Justin,Doe,3
Jill,Doe,1
Joe,Doe,2
Justin,Doe,3
Jill,Doe,1
Joe,Doe,2
Justin,Doe,3
Jill,Doe,1
Joe,Doe,2
Justin,Doe,3
Jill,Doe,1
Joe,Doe,2
Justin,Doe,3
Jill,Doe,1
Joe,Doe,2
Justin,Doe,3
Jill,Doe,1
Joe,Doe,2
Justin,Doe,3
Jill,Doe,1
Joe,Doe,2
Justin,Doe,3
Jill,Doe,1
Joe,Doe,2
Justin,Doe,3
Jill,Doe,1
Joe,Doe,2
Justin,Doe,3
Joe,Doe,2
Justin,Doe,3
Jill,Doe,1
Joe,Doe,2
Justin,Doe,3
Jill,Doe,1
Joe,Doe,2
Justin,Doe,3
Jill,Doe,1
Joe,Doe,2
Justin,Doe,3
Jill,Doe,1
Joe,Doe,2
Justin,Doe,3
Jill,Doe,1
Joe,Doe,2
Justin,Doe,3
Jill,Doe,1
Joe,Doe,2
Justin,Doe,3
Jill,Doe,1
Joe,Doe,2
Justin,Doe,3
Jill,Doe,1
Joe,Doe,2
Justin,Doe,3
Jill,Doe,1
Joe,Doe,2
Justin,Doe,3
Jill,Doe,1
Joe,Doe,2
Justin,Doe,3
Jill,Doe,1
Joe,Doe,2
Justin,Doe,3
Jill,Doe,1
Joe,Doe,2
Justin,Doe,3
Jill,Doe,1
Joe,Doe,2
Justin,Doe,3
Jill,Doe,1
Joe,Doe,2
Justin,Doe,3
Jill,Doe,1
Joe,Doe,2
Justin,Doe,3
Jill,Doe,1
Joe,Doe,2
Justin,Doe,3
Jill,Doe,1
Joe,Doe,2
Justin,Doe,3
Jill,Doe,1
Joe,Doe,2
Justin,Doe,3
Joe,Doe,2
Justin,Doe,3
Jill,Doe,1
Joe,Doe,2
Justin,Doe,3
Jill,Doe,1
Joe,Doe,2
Justin,Doe,3
Jill,Doe,1
Joe,Doe,2
Justin,Doe,3
Jill,Doe,1
Joe,Doe,2
Justin,Doe,3
Jill,Doe,1
Joe,Doe,2
Justin,Doe,3
Jill,Doe,1
Joe,Doe,2
Justin,Doe,3
Jill,Doe,1
Joe,Doe,2
Justin,Doe,3
Jill,Doe,1
Joe,Doe,2
Justin,Doe,3
Jill,Doe,1
Joe,Doe,2
Justin,Doe,3
Jill,Doe,1
Joe,Doe,2
Justin,Doe,3
Jill,Doe,1
Joe,Doe,2
Justin,Doe,3
Jill,Doe,1
Joe,Doe,2
Justin,Doe,3
Jill,Doe,1
Joe,Doe,2
Justin,Doe,3
Jill,Doe,1
Joe,Doe,2
Justin,Doe,3
Jill,Doe,1
Joe,Doe,2
Justin,Doe,3
Jill,Doe,1
Joe,Doe,2
Justin,Doe,3
Jill,Doe,1
Joe,Doe,2
Justin,Doe,3
Jill,Doe,1
Joe,Doe,2
Justin,Doe,3
Joe,Doe,2
Justin,Doe,3
Jill,Doe,1
Joe,Doe,2
Justin,Doe,3
Jill,Doe,1
Joe,Doe,2
Justin,Doe,3
Jill,Doe,1
Joe,Doe,2
Justin,Doe,3
Jill,Doe,1
Joe,Doe,2
Justin,Doe,3
Jill,Doe,1
Joe,Doe,2
Justin,Doe,3
Jill,Doe,1
Joe,Doe,2
Justin,Doe,3
Jill,Doe,1
Joe,Doe,2
Justin,Doe,3
Jill,Doe,1
Joe,Doe,2
Justin,Doe,3
Jill,Doe,1
Joe,Doe,2
Justin,Doe,3
Jill,Doe,1
Joe,Doe,2
Justin,Doe,3
Jill,Doe,1
Joe,Doe,2
Justin,Doe,3
Jill,Doe,1
Joe,Doe,2
Justin,Doe,3
Jill,Doe,1
Joe,Doe,2
Justin,Doe,3
Jill,Doe,1
Joe,Doe,2
Justin,Doe,3
Jill,Doe,1
Joe,Doe,2
Justin,Doe,3
Jill,Doe,1
Joe,Doe,2
Justin,Doe,3
Jill,Doe,1
Joe,Doe,2
Justin,Doe,3
Jill,Doe,1
Joe,Doe,2
Justin,Doe,3
Joe,Doe,2
Justin,Doe,3
Jill,Doe,1
Joe,Doe,2
Justin,Doe,3
Jill,Doe,1
Joe,Doe,2
Justin,Doe,3
Jill,Doe,1
Joe,Doe,2
Justin,Doe,3
Jill,Doe,1
Joe,Doe,2
Justin,Doe,3
Jill,Doe,1
Joe,Doe,2
Justin,Doe,3
Jill,Doe,1
Joe,Doe,2
Justin,Doe,3
Jill,Doe,1
Joe,Doe,2
Justin,Doe,3
Jill,Doe,1
Joe,Doe,2
Justin,Doe,3
Jill,Doe,1
Joe,Doe,2
Justin,Doe,3
Jill,Doe,1
Joe,Doe,2
Justin,Doe,3
Jill,Doe,1
Joe,Doe,2
Justin,Doe,3
Jill,Doe,1
Joe,Doe,2
Justin,Doe,3
Jill,Doe,1
Joe,Doe,2
Justin,Doe,3
Jill,Doe,1
Joe,Doe,2
Justin,Doe,3
Jill,Doe,1
Joe,Doe,2
Justin,Doe,3
Jill,Doe,1
Joe,Doe,2
Justin,Doe,3
Jill,Doe,1
Joe,Doe,2
Justin,Doe,3
Jill,Doe,1
Joe,Doe,2
Justin,Doe,3
Joe,Doe,2
Justin,Doe,3
Jill,Doe,1
Joe,Doe,2
Justin,Doe,3
Jill,Doe,1
Joe,Doe,2
Justin,Doe,3
Jill,Doe,1
Joe,Doe,2
Justin,Doe,3
Jill,Doe,1
Joe,Doe,2
Justin,Doe,3
Jill,Doe,1
Joe,Doe,2
Justin,Doe,3
Jill,Doe,1
Joe,Doe,2
Justin,Doe,3
Jill,Doe,1
Joe,Doe,2
Justin,Doe,3
Jill,Doe,1
Joe,Doe,2
Justin,Doe,3
Jill,Doe,1
Joe,Doe,2
Justin,Doe,3
Jill,Doe,1
Joe,Doe,2
Justin,Doe,3
Jill,Doe,1
Joe,Doe,2
Justin,Doe,3
Jill,Doe,1
Joe,Doe,2
Justin,Doe,3
Jill,Doe,1
Joe,Doe,2
Justin,Doe,3
Jill,Doe,1
Joe,Doe,2
Justin,Doe,3
Jill,Doe,1
Joe,Doe,2
Justin,Doe,3
Jill,Doe,1
Joe,Doe,2
Justin,Doe,3
Jill,Doe,1
Joe,Doe,2
Justin,Doe,3
Jill,Doe,1
Joe,Doe,2
Justin,Doe,3
Joe,Doe,2
Justin,Doe,3
Jill,Doe,1
Joe,Doe,2
Justin,Doe,3
Jill,Doe,1
Joe,Doe,2
Justin,Doe,3
Jill,Doe,1
Joe,Doe,2
Justin,Doe,3
Jill,Doe,1
Joe,Doe,2
Justin,Doe,3
Jill,Doe,1
Joe,Doe,2
Justin,Doe,3
Jill,Doe,1
Joe,Doe,2
Justin,Doe,3
Jill,Doe,1
Joe,Doe,2
Justin,Doe,3
Jill,Doe,1
Joe,Doe,2
Justin,Doe,3
Jill,Doe,1
Joe,Doe,2
Justin,Doe,3
Jill,Doe,1
Joe,Doe,2
Justin,Doe,3
Jill,Doe,1
Joe,Doe,2
Justin,Doe,3
Jill,Doe,1
Joe,Doe,2
Justin,Doe,3
Jill,Doe,1
Joe,Doe,2
Justin,Doe,3
Jill,Doe,1
Joe,Doe,2
Justin,Doe,3
Jill,Doe,1
Joe,Doe,2
Justin,Doe,3
Jill,Doe,1
Joe,Doe,2
Justin,Doe,3
Jill,Doe,1
Joe,Doe,2
Justin,Doe,3
Jill,Doe,1
Joe,Doe,2
Justin,Doe,3
Joe,Doe,2
Justin,Doe,3
Jill,Doe,1
Joe,Doe,2
Justin,Doe,3
Jill,Doe,1
Joe,Doe,2
Justin,Doe,3
Jill,Doe,1
Joe,Doe,2
Justin,Doe,3
Jill,Doe,1
Joe,Doe,2
Justin,Doe,3
Jill,Doe,1
Joe,Doe,2
Justin,Doe,3
Jill,Doe,1
Joe,Doe,2
Justin,Doe,3
Jill,Doe,1
Joe,Doe,2
Justin,Doe,3
Jill,Doe,1
Joe,Doe,2
Justin,Doe,3
Jill,Doe,1
Joe,Doe,2
Justin,Doe,3
Jill,Doe,1
Joe,Doe,2
Justin,Doe,3
Jill,Doe,1
Joe,Doe,2
Justin,Doe,3
Jill,Doe,1
Joe,Doe,2
Justin,Doe,3
Jill,Doe,1
Joe,Doe,2
Justin,Doe,3
Jill,Doe,1
Joe,Doe,2
Justin,Doe,3
Jill,Doe,1
Joe,Doe,2
Justin,Doe,3
Jill,Doe,1
Joe,Doe,2
Justin,Doe,3
Jill,Doe,1
Joe,Doe,2
Justin,Doe,3
Jill,Doe,1
Joe,Doe,2
Justin,Doe,3
Joe,Doe,2
Justin,Doe,3
Jill,Doe,1
Joe,Doe,2
Justin,Doe,3
Jill,Doe,1
Joe,Doe,2
Justin,Doe,3
Jill,Doe,1
Joe,Doe,2
Justin,Doe,3
Jill,Doe,1
Joe,Doe,2
Justin,Doe,3
Jill,Doe,1
Joe,Doe,2
Justin,Doe,3
Jill,Doe,1
Joe,Doe,2
Justin,Doe,3
Jill,Doe,1
Joe,Doe,2
Justin,Doe,3
Jill,Doe,1
Joe,Doe,2
Justin,Doe,3
Jill,Doe,1
Joe,Doe,2
Justin,Doe,3
Jill,Doe,1
Joe,Doe,2
Justin,Doe,3
Jill,Doe,1
Joe,Doe,2
Justin,Doe,3
Jill,Doe,1
Joe,Doe,2
Justin,Doe,3
Jill,Doe,1
Joe,Doe,2
Justin,Doe,3
Jill,Doe,1
Joe,Doe,2
Justin,Doe,3
Jill,Doe,1
Joe,Doe,2
Justin,Doe,3
Jill,Doe,1
Joe,Doe,2
Justin,Doe,3
Jill,Doe,1
Joe,Doe,2
Justin,Doe,3
Jill,Doe,1
Joe,Doe,2
Justin,Doe,3
Joe,Doe,2
Justin,Doe,3
Jill,Doe,1
Joe,Doe,2
Justin,Doe,3
Jill,Doe,1
Joe,Doe,2
Justin,Doe,3
Jill,Doe,1
Joe,Doe,2
Justin,Doe,3
Jill,Doe,1
Joe,Doe,2
Justin,Doe,3
Jill,Doe,1
Joe,Doe,2
Justin,Doe,3
Jill,Doe,1
Joe,Doe,2
Justin,Doe,3
Jill,Doe,1
Joe,Doe,2
Justin,Doe,3
Jill,Doe,1
